{
  "folder": null,
  "name": "Divination's Incense",
  "type": "loot",
  "img": "modules/snogard-compendium/icons/items/incense.webp",
  "system": {
    "originVersion": 0,
    "originPack": "",
    "originId": "",
    "possibleUpdate": false,
    "description": {
      "value": "",
      "chat": "",
      "unidentified": ""
    },
    "epic": "",
    "psionic": "",
    "nameFormula": "",
    "nameFromFormula": false,
    "tags": [],
    "uniqueId": "",
    "addedLevel": 0,
    "linkId": "",
    "linkSourceId": "",
    "linkImported": false,
    "linkSourceName": "",
    "source": "",
    "classSource": "",
    "userNonRemovable": false,
    "customAttributes": {},
    "customAttributesLocked": false,
    "customTag": "",
    "createdBy": "",
    "quantity": 1,
    "weight": 0,
    "constantWeight": false,
    "price": 25,
    "resalePrice": null,
    "brokenResalePrice": null,
    "fullResalePrice": false,
    "identified": true,
    "identifiedCurse": false,
    "cursed": false,
    "curseActive": false,
    "hp": {
      "max": 10,
      "value": 10
    },
    "hardness": 0,
    "carried": true,
    "unidentified": {
      "price": 0,
      "name": ""
    },
    "identifiedName": "Divination's Incense",
    "container": "None",
    "containerId": "none",
    "containerWeightless": false,
    "equippedWeightless": false,
    "material": {
      "data": null
    },
    "subType": "misc",
    "bonusAmmoAttack": "",
    "bonusAmmoEnhancement": "",
    "bonusAmmoDamage": "",
    "bonusAmmoDamageType": "",
    "bonusAmmoDamageUid": "",
    "bonusAmmoAttackNote": "",
    "bagOfHoldingLike": false,
    "containerCanUseItems": false,
    "capacity": 0,
    "creationChanges": [],
    "convertedWeight": null,
    "damage": {
      "parts": [],
      "alternativeParts": []
    },
    "attackParts": [],
    "conditionals": [],
    "contextNotes": [],
    "specialActions": [],
    "summon": [],
    "activateActions": [],
    "deactivateActions": [],
    "perRoundActions": [],
    "changes": [],
    "combatChanges": [],
    "requirements": [],
    "resistances": [],
    "damageReduction": [],
    "index": {
      "subType": null,
      "uniqueId": ""
    }
  },
  "effects": [],
  "ownership": {
    "default": 0,
    "pukqaXS9wqBDIqB8": 3
  },
  "flags": {
    "core": {}
  },
  "_stats": {
    "systemId": "D35E",
    "systemVersion": "2.4.3",
    "coreVersion": "11.315",
    "createdTime": 1720885910941,
    "modifiedTime": 1721315990402,
    "lastModifiedBy": "pukqaXS9wqBDIqB8"
  },
  "_id": "cbyiZkSEabVcnDEa",
  "sort": 600000,
  "_key": "!items!cbyiZkSEabVcnDEa"
}
