{
  "folder": null,
  "name": "Dedicated Wright",
  "type": "loot",
  "img": "modules/snogard-compendium/icons/items/dedicated-wright.webp",
  "system": {
    "originVersion": 0,
    "originPack": "",
    "originId": "",
    "possibleUpdate": false,
    "description": {
      "value": "<section id=\"h.468f5d8f47a4995f_1949\" class=\"yaqOZd\">\n<div class=\"mYVXT\">\n<div class=\"LS81yb VICjCf j5pSsc db35Fc\" tabindex=\"-1\">\n<div class=\"hJDwNd-AhqUyc-zQtlcf Ft7HRd-AhqUyc-zQtlcf purZT-AhqUyc-II5mzb ZcASvf-AhqUyc-II5mzb pSzOP-AhqUyc-qWD73c Ktthjf-AhqUyc-qWD73c JNdkSc SQVYQc\">\n<div class=\"JNdkSc-SmKAyb LkDMRd\">\n<div class=\"\">\n<div class=\"oKdM2c ZZyype Kzv0Me\">\n<div id=\"h.468f5d8f47a4995f_1952\" class=\"hJDwNd-AhqUyc-zQtlcf Ft7HRd-AhqUyc-zQtlcf jXK9ad D2fZ2 zu5uec OjCsFc dmUFtb wHaque g5GTcb JYTMs\">\n<div class=\"jXK9ad-SmKAyb\">\n<div class=\"tyJCtd mGzaTb Depvyb baZpAe\">\n<p class=\"CDt4Ke zfr3Q\" dir=\"ltr\"><strong>XP: 200</strong></p>\n<p class=\"CDt4Ke zfr3Q\" dir=\"ltr\">Any Alignment (same as creator) Tiny Construct</p>\n<p class=\"CDt4Ke zfr3Q\" dir=\"ltr\"><strong>Init:</strong> +0; <strong>Senses:</strong> low-light vision, darkvision 60'; Perception +0</p>\n<p class=\"CDt4Ke zfr3Q\" dir=\"ltr\"><strong>DEFENSE:</strong></p>\n<p class=\"CDt4Ke zfr3Q\" dir=\"ltr\"><strong>AC:</strong> 12, Touch 12, Flat-Footed 12 (+2 size)</p>\n<p class=\"CDt4Ke zfr3Q\" dir=\"ltr\"><strong>HP:</strong> 5 hp (1d10)</p>\n<p class=\"CDt4Ke zfr3Q\" dir=\"ltr\"><strong>Fort:</strong> +0; <strong>Ref:</strong> +0; <strong>Will:</strong> +0</p>\n<p class=\"CDt4Ke zfr3Q\" dir=\"ltr\"><strong>Immune:</strong> Construct Traits</p>\n<p class=\"CDt4Ke zfr3Q\" dir=\"ltr\"><strong>OFFENSE:</strong></p>\n<p class=\"CDt4Ke zfr3Q\" dir=\"ltr\"><strong>Speed:</strong> 10'</p>\n<p class=\"CDt4Ke zfr3Q\" dir=\"ltr\"><strong>Melee:</strong> Hammer +4 (1d3+1)</p>\n<p class=\"CDt4Ke zfr3Q\" dir=\"ltr\"><strong>Space:</strong> 2 1/2 ft.; <strong>Reach:</strong> 0 ft.</p>\n<p class=\"CDt4Ke zfr3Q\" dir=\"ltr\"><strong>STATISTICS:</strong></p>\n<p class=\"CDt4Ke zfr3Q\" dir=\"ltr\"><strong>Str</strong> 12, <strong>Dex</strong> 11, <strong>Con</strong> -, <strong>Int</strong> 10, <strong>Wis</strong> 11, <strong>Chr</strong> 7</p>\n<p class=\"CDt4Ke zfr3Q\" dir=\"ltr\"><strong>Base Atk:</strong> +1; <strong>CMB:</strong> +0; <strong>CMD:</strong> 10</p>\n<p class=\"CDt4Ke zfr3Q\" dir=\"ltr\"><strong>Feats: </strong>Skill Focus (Craft: any one)</p>\n<p class=\"CDt4Ke zfr3Q\" dir=\"ltr\"><strong>Skills:</strong> Craft (any one) +7, Craft (any one other) +4</p>\n<p class=\"CDt4Ke zfr3Q\" dir=\"ltr\"><strong>SPECIAL ABILITIES:</strong></p>\n<p class=\"CDt4Ke zfr3Q\" dir=\"ltr\"><strong>Item Creation (Su):</strong> A dedicate wright can be commanded to perform the necessary tasks related to magical item creation on behalf of its master. The master must meet or emulate all the necessary prerequisites, have the appropriate tools for the dedicated wright to use and pay item creation cost for the necessary raw materials. The wright then is able to perform the necessary tasks, spending the necessary time and leaving the master to continue with other projects. It takes 1 hour to give the dedicated wright the necessary commands to make a magical item and a dedicated wright can only work on one item at a time. Otherwise, it acts as the master, using his skill ranks, caster level, feats, spells known and all other aspects related for the magical item creation process as they are at the time the commands were given.</p>\n<p class=\"CDt4Ke zfr3Q\" dir=\"ltr\">A dedicated wright can be commanded to abandon any progress toward a magical item, but if it starts a new project, any progress toward the original project is lost. If the magical item creation can benefit from teamwork, multiple dedicated wrights can be commanded to work together, although dedicated wrights from multiple masters must all qualify normally to assist. Lastly, dedicated wrights can be commanded to use their Craft skills for mundane projects, but they use their own Craft modifiers for these mundane projects.</p>\n<p class=\"CDt4Ke zfr3Q\" dir=\"ltr\"><strong>Telepathic Link (Su): </strong>Dedicated wrights cannot speak, but maintain a constant telepathic link to their master. Through this link, they instantly understand everything their master desires, knows what he knows and can provide complete understanding of their surroundings back to their master. This link is maintained regardless of the distance, but going more than 1,500' causes a noticeably <em>nervousness</em> within the construct. A dedicated wright will never willing go beyond this range unless it is required as part of a task assigned to them via their Item Creation ability. Should a dedicated wright be forced outside of this distance and does not have a project to complete, it will stand guard over its finished project (if any) and attempt to return to their master with the project. For masters that do a lot of travelling, this often requires that the laboratory that the dedicate wright is using remains firmly locked.</p>\n<p class=\"CDt4Ke zfr3Q\" dir=\"ltr\">&nbsp;</p>\n</div>\n</div>\n</div>\n</div>\n</div>\n</div>\n</div>\n</div>\n</div>\n</section>\n<section id=\"h.468f5d8f47a4995f_1953\" class=\"yaqOZd\">\n<div class=\"mYVXT\">\n<div class=\"LS81yb VICjCf j5pSsc db35Fc\" tabindex=\"-1\">\n<div class=\"hJDwNd-AhqUyc-uQSCkd Ft7HRd-AhqUyc-uQSCkd purZT-AhqUyc-II5mzb ZcASvf-AhqUyc-II5mzb pSzOP-AhqUyc-qWD73c Ktthjf-AhqUyc-qWD73c JNdkSc SQVYQc\">\n<div class=\"JNdkSc-SmKAyb LkDMRd\">\n<div class=\"\">\n<div class=\"oKdM2c ZZyype Kzv0Me\">\n<div id=\"h.468f5d8f47a4995f_1956\" class=\"hJDwNd-AhqUyc-uQSCkd Ft7HRd-AhqUyc-uQSCkd jXK9ad D2fZ2 zu5uec OjCsFc dmUFtb wHaque g5GTcb JYTMs\">\n<div class=\"jXK9ad-SmKAyb\">\n<div class=\"tyJCtd mGzaTb Depvyb baZpAe\">\n<p class=\"CDt4Ke zfr3Q\" dir=\"ltr\"><strong>Construction:</strong></p>\n<p class=\"CDt4Ke zfr3Q\" dir=\"ltr\"><strong> </strong>Dedicated wrights are made from sculptor's clay, paint, glaze and one pint of blood. This body costs 100 gp. After the form is sculpted and baked in a kiln, it is animated through magical rites, requiring an additional 1,000 gp worth of reagents and arcane materials. The person who donated the blood, which is not necessarily the creator, is the dedicated wright's master. When a dedicated wright is created, the enchanter chooses two Craft skills, one of which must be chosen for the dedicated wrights Skill Focus (Craft) feat. Once these choices are made, they cannot be changed for that particular dedicated wright. Dedicated wrights can be created with additional hit dice, each additional an additional 2,000 gp to the base cost.</p>\n<p class=\"CDt4Ke zfr3Q\" dir=\"ltr\"><strong>Caster Level:</strong> 7th; <strong>Price: </strong>2,100 gp</p>\n<p class=\"CDt4Ke zfr3Q\" dir=\"ltr\"><strong>Requirements: </strong>Craft Construct, <em>arcane eye, fabricate</em>; <strong>Skill: </strong>Craft (sculpture) DC 14; <strong>Cost: </strong>1,100 gp.</p>\n</div>\n</div>\n</div>\n</div>\n</div>\n</div>\n</div>\n</div>\n</div>\n</section>",
      "chat": "",
      "unidentified": ""
    },
    "epic": "",
    "psionic": "",
    "nameFormula": "",
    "nameFromFormula": false,
    "tags": [],
    "uniqueId": "",
    "addedLevel": 0,
    "linkId": "",
    "linkSourceId": "",
    "linkImported": false,
    "linkSourceName": "",
    "source": "",
    "classSource": "",
    "userNonRemovable": false,
    "customAttributes": {},
    "customAttributesLocked": false,
    "customTag": "",
    "createdBy": "",
    "quantity": 1,
    "weight": 0,
    "constantWeight": false,
    "price": 2100,
    "resalePrice": null,
    "brokenResalePrice": null,
    "fullResalePrice": false,
    "identified": true,
    "identifiedCurse": false,
    "cursed": false,
    "curseActive": false,
    "hp": {
      "max": 5,
      "value": 5
    },
    "hardness": 0,
    "carried": true,
    "unidentified": {
      "price": 0,
      "name": ""
    },
    "identifiedName": "Dedicated Wright",
    "container": "None",
    "containerId": "none",
    "containerWeightless": false,
    "equippedWeightless": false,
    "material": {
      "data": null
    },
    "subType": "misc",
    "bonusAmmoAttack": "",
    "bonusAmmoEnhancement": "",
    "bonusAmmoDamage": "",
    "bonusAmmoDamageType": "",
    "bonusAmmoDamageUid": "",
    "bonusAmmoAttackNote": "",
    "bagOfHoldingLike": false,
    "containerCanUseItems": false,
    "capacity": 0,
    "creationChanges": [],
    "convertedWeight": null,
    "damage": {
      "parts": [],
      "alternativeParts": []
    },
    "attackParts": [],
    "conditionals": [],
    "contextNotes": [],
    "specialActions": [],
    "summon": [],
    "activateActions": [],
    "deactivateActions": [],
    "perRoundActions": [],
    "changes": [],
    "combatChanges": [],
    "requirements": [],
    "resistances": [],
    "damageReduction": [],
    "index": {
      "subType": null,
      "uniqueId": ""
    }
  },
  "effects": [],
  "ownership": {
    "default": 0,
    "pukqaXS9wqBDIqB8": 3
  },
  "flags": {
    "core": {}
  },
  "_stats": {
    "systemId": "D35E",
    "systemVersion": "2.4.3",
    "coreVersion": "11.315",
    "createdTime": 1720887741673,
    "modifiedTime": 1720962000148,
    "lastModifiedBy": "pukqaXS9wqBDIqB8"
  },
  "_id": "00674mBDSDWRpBGT",
  "sort": 100000,
  "_key": "!items!00674mBDSDWRpBGT"
}
