{
  "name": "Wand Bracelet",
  "type": "equipment",
  "system": {
    "originVersion": 0,
    "originPack": "",
    "originId": "",
    "possibleUpdate": false,
    "description": {
      "value": "<p><strong>Item Level</strong>:&nbsp; 13th<br><strong>Body Slot</strong>: Arms<br><strong>Caster Level</strong>: 6th<br><strong>Aura</strong>: Moderate; (DC 18) transmutation<br><strong>Activation</strong>: See text<br><strong>Weight</strong>: &mdash;</p>\n<p><em>This golden chain bracelet has a number </em><em>of small metal objects hanging from it like </em><em>charms.</em></p>\n<p><br>A wand bracelet can store up to four items, which appear as charms along the bracelet. You can grab one of the charms from the bracelet as a swift (manipulation) action,&nbsp;causing it to appear in your hand. If you have an item in hand, you can&nbsp;use a move (manipulation) action to store the item in the bracelet or to switch a held item for a stored item by touching the item to the charm representing the stored item. Storing an item causes it to shrink down and appear as a charm hanging from the bracelet. Any item stored can weigh no more than 3 pounds and must be able to be held in one hand, such as a wand or a light weapon. Only the wearer of the bracelet is able to retrieve or store items.</p>\n<p><br><strong>Lore</strong>: The name wand bracelet describes the most common use of this item. Originally&nbsp;designed to hold small keepsakes as charms, and crafted to be appropriate for formal gatherings, wand bracelets have found popularity among artificers (ECS 29) who favor spell trigger devices (Knowledge [history] DC 15). These bracelets are also sometimes known as assassins&rsquo; charms, because small weapons can easily be concealed within them (Knowledge [history] DC 20).</p>\n<p><br><em>Prerequisites</em>: Craft Wondrous Item, shrink item.<br><em>Cost to Create:</em> 6,000 gp, 480 XP, 12 days.</p>",
      "chat": "",
      "unidentified": ""
    },
    "epic": "",
    "psionic": "",
    "nameFormula": "",
    "nameFromFormula": false,
    "tags": [],
    "uniqueId": "",
    "addedLevel": 0,
    "linkId": "",
    "linkSourceId": "",
    "linkImported": false,
    "linkSourceName": "",
    "source": "",
    "classSource": "",
    "userNonRemovable": false,
    "customAttributes": {},
    "customAttributesLocked": false,
    "customTag": "",
    "createdBy": "",
    "quantity": 1,
    "weight": null,
    "constantWeight": false,
    "price": 12000,
    "resalePrice": null,
    "brokenResalePrice": null,
    "fullResalePrice": false,
    "identified": true,
    "identifiedCurse": false,
    "cursed": false,
    "curseActive": false,
    "hp": {
      "max": 10,
      "value": 10
    },
    "hardness": 0,
    "carried": true,
    "unidentified": {
      "price": 0,
      "name": ""
    },
    "identifiedName": "Wand Bracelet",
    "container": "None",
    "containerId": "none",
    "containerWeightless": false,
    "equippedWeightless": false,
    "changes": [],
    "changeFlags": {
      "loseDexToAC": false,
      "noStr": false,
      "noDex": false,
      "noInt": false,
      "noCon": false,
      "oneInt": false,
      "oneWis": false,
      "oneCha": false,
      "noEncumbrance": false,
      "mediumArmorFullSpeed": false,
      "heavyArmorFullSpeed": false,
      "multiAttack": false,
      "multiweaponAttack": false,
      "uncannyDodge": false,
      "improvedMultiattack": false,
      "hasted": false,
      "firstChangeTargetSelectableOnDescription": false
    },
    "conditionFlags": {
      "dazzled": false,
      "wildshaped": false,
      "polymorphed": false
    },
    "combatChanges": [],
    "combatChangesRange": {
      "maxFormula": "",
      "max": 0
    },
    "combatChangesAdditionalRanges": {
      "hasAdditionalRanges": false,
      "slider1": {
        "maxFormula": "",
        "max": 0,
        "name": ""
      },
      "slider2": {
        "maxFormula": "",
        "max": 0,
        "name": ""
      },
      "slider3": {
        "maxFormula": "",
        "max": 0,
        "name": ""
      }
    },
    "combatChangesUsesCost": "chargesPerUse",
    "combatChangesApplySpecialActionsOnce": true,
    "combatChangeCustomDisplayName": "",
    "combatChangeCustomReferenceName": "",
    "sizeOverride": "",
    "counterName": "",
    "resistances": [],
    "damageReduction": [],
    "requirements": [],
    "creationChanges": [],
    "measureTemplate": {
      "type": "",
      "size": "",
      "overrideColor": false,
      "customColor": "",
      "overrideTexture": false,
      "customTexture": ""
    },
    "actionType": "",
    "attackBonus": "",
    "critConfirmBonus": "",
    "damage": {
      "parts": [],
      "alternativeParts": []
    },
    "summon": [],
    "attackParts": [],
    "autoscaleAttackParts": "",
    "formula": "",
    "attackCountFormula": "",
    "maxDamageDice": 0,
    "maxDamageDiceFormula": "",
    "ability": {
      "attack": null,
      "damage": null,
      "damageMult": 1,
      "critRange": "20",
      "critMult": 2,
      "twoHandedOnly": false,
      "vsTouchAc": false
    },
    "save": {
      "dc": 0,
      "description": "",
      "ability": "",
      "type": "",
      "dcAutoType": "",
      "dcAutoAbility": ""
    },
    "baseCl": "0",
    "sr": false,
    "pr": false,
    "metamagicFeats": {
      "maximized": false,
      "empowered": false,
      "enlarged": false,
      "intensified": false,
      "enhanced": false,
      "enhancedHalf": false,
      "widened": false
    },
    "effectNotes": "",
    "attackNotes": "",
    "specialActions": [],
    "favorite": false,
    "rollTableDraw": {
      "formula": "",
      "name": "",
      "pack": "",
      "id": ""
    },
    "contextNotes": [],
    "enhancements": {
      "uses": {
        "value": 0,
        "max": 0,
        "per": null,
        "rechargeFormula": null,
        "autoDeductCharges": true,
        "allowMultipleUses": false,
        "commonPool": false
      },
      "automation": {
        "updateName": false,
        "updatePrice": false
      },
      "clFormula": "",
      "spellcastingAbility": "",
      "items": []
    },
    "light": {
      "color": "#000000",
      "radius": 0,
      "opacity": 0,
      "alpha": 0.5,
      "lightAngle": 360,
      "type": "",
      "animationSpeed": 6,
      "animationIntensity": 6,
      "dimRadius": null,
      "emitLight": false
    },
    "material": {
      "data": null
    },
    "equipped": true,
    "equipmentType": "misc",
    "equipmentSubtype": "wondrous",
    "armor": {
      "value": 0,
      "dex": "",
      "acp": 0,
      "enh": 0
    },
    "masterwork": false,
    "melded": false,
    "linkedItems": [],
    "armorType": {
      "value": "",
      "_deprecated": true
    },
    "spellFailure": 0,
    "slot": "wrists",
    "convertedWeight": null,
    "selectedMaterial": "none",
    "activation": {
      "cost": null,
      "type": ""
    },
    "senses": {
      "lowLight": false,
      "lowLightMultiplier": null,
      "blindsight": null,
      "darkvision": null,
      "tremorsense": null,
      "truesight": null
    },
    "conditionals": [],
    "activateActions": [],
    "deactivateActions": [],
    "perRoundActions": [],
    "index": {
      "uniqueId": ""
    }
  },
  "img": "modules/snogard-compendium/icons/items/wand-bracelet.webp",
  "effects": [],
  "folder": null,
  "ownership": {
    "default": 0,
    "pukqaXS9wqBDIqB8": 3
  },
  "flags": {
    "core": {}
  },
  "_stats": {
    "systemId": "D35E",
    "systemVersion": "2.4.3",
    "coreVersion": "11.315",
    "createdTime": 1709257134268,
    "modifiedTime": 1721318330929,
    "lastModifiedBy": "pukqaXS9wqBDIqB8"
  },
  "_id": "zEQ4yuZLmc7GPXHv",
  "sort": 2000000,
  "_key": "!items!zEQ4yuZLmc7GPXHv"
}
