{
  "name": "Secret",
  "type": "feat",
  "img": "icons/sundries/books/book-red-exclamation.webp",
  "system": {
    "originVersion": 0,
    "originPack": "",
    "originId": "",
    "possibleUpdate": false,
    "description": {
      "value": "<p>In their studies, loremasters stumble upon all sorts of applicable knowledge and secrets. At 1st level and every two levels higher than 1st (3rd, 5th, 7th, and 9th), the loremaster chooses one secret from the table on the next page. Her level plus Intelligence modifier determines the total number of secrets she can choose.</p>\n<p>&nbsp;</p>\n<table>\n<tbody>\n<tr>\n<th colspan=\"3\">Loremaster Secrets</th>\n</tr>\n<tr>\n<th>Level + Int Modifier</th>\n<th>Secret</th>\n<th>Effect</th>\n</tr>\n<tr>\n<td>1</td>\n<td>Instant mastery</td>\n<td>4 ranks of skill in which the character has no ranks</td>\n</tr>\n<tr>\n<td>2</td>\n<td>Secret health</td>\n<td>+3 hit points</td>\n</tr>\n<tr>\n<td>3</td>\n<td>Secrets of inner strength</td>\n<td>+2 bonus on Will saves</td>\n</tr>\n<tr>\n<td>4</td>\n<td>The lore of true stamina</td>\n<td>+2 bonus on Fortitude saves</td>\n</tr>\n<tr>\n<td>5</td>\n<td>Secret knowledge of avoidance</td>\n<td>+2 bonus on Reflex saves</td>\n</tr>\n<tr>\n<td>6</td>\n<td>Weapon trick</td>\n<td>+1 bonus on attack rolls</td>\n</tr>\n<tr>\n<td>7</td>\n<td>Dodge trick</td>\n<td>+1 dodge bonus to AC</td>\n</tr>\n<tr>\n<td>8</td>\n<td>Applicable knowledge</td>\n<td>Any one feat</td>\n</tr>\n<tr>\n<td>9</td>\n<td>Newfound arcana</td>\n<td>1 bonus 1st-level spell <sup>1</sup></td>\n</tr>\n<tr>\n<td>10</td>\n<td>More newfound arcana</td>\n<td>1 bonus 2nd-level spell <sup>1</sup></td>\n</tr>\n<tr>\n<th colspan=\"3\"><sup>1</sup> As if gained through having a high ability score.</th>\n</tr>\n</tbody>\n</table>",
      "chat": "",
      "unidentified": ""
    },
    "epic": "",
    "psionic": "",
    "nameFormula": "",
    "nameFromFormula": false,
    "tags": [],
    "uniqueId": "user-loremaster-secret",
    "addedLevel": 0,
    "linkId": "",
    "linkSourceId": "",
    "linkImported": false,
    "linkSourceName": "",
    "source": "",
    "classSource": "",
    "userNonRemovable": false,
    "customAttributes": {},
    "customAttributesLocked": false,
    "customTag": "",
    "createdBy": "",
    "activation": {
      "cost": 1,
      "type": ""
    },
    "duration": {
      "value": null,
      "units": ""
    },
    "target": {
      "value": ""
    },
    "range": {
      "value": null,
      "units": ""
    },
    "recharge": {
      "enabled": false,
      "formula": "",
      "current": 0,
      "value": null,
      "charged": false,
      "_deprecated": true
    },
    "uses": {
      "value": 0,
      "max": 0,
      "per": null,
      "autoDeductCharges": true,
      "allowMultipleUses": false,
      "chargesPerUse": 1,
      "maxPerUse": null,
      "maxPerUseFormula": "",
      "maxFormula": "",
      "rechargeFormula": null,
      "isResource": false,
      "canBeLinked": false
    },
    "requiresPsionicFocus": false,
    "linkedChargeItem": {
      "id": null,
      "img": null,
      "name": null
    },
    "measureTemplate": {
      "type": "",
      "size": "",
      "overrideColor": false,
      "customColor": "",
      "overrideTexture": false,
      "customTexture": ""
    },
    "actionType": "",
    "attackBonus": "",
    "critConfirmBonus": "",
    "damage": {
      "parts": [],
      "alternativeParts": []
    },
    "summon": [],
    "attackParts": [],
    "autoscaleAttackParts": "",
    "formula": "",
    "attackCountFormula": "",
    "maxDamageDice": 0,
    "maxDamageDiceFormula": "",
    "ability": {
      "attack": null,
      "damage": null,
      "damageMult": 1,
      "critRange": "20",
      "critMult": 2,
      "twoHandedOnly": false,
      "vsTouchAc": false
    },
    "save": {
      "dc": 0,
      "description": "",
      "ability": "",
      "type": "",
      "dcAutoType": "",
      "dcAutoAbility": ""
    },
    "baseCl": "0",
    "sr": false,
    "pr": false,
    "metamagicFeats": {
      "maximized": false,
      "empowered": false,
      "enlarged": false,
      "intensified": false,
      "enhanced": false,
      "enhancedHalf": false,
      "widened": false
    },
    "effectNotes": "",
    "attackNotes": "",
    "specialActions": [],
    "favorite": false,
    "rollTableDraw": {
      "formula": "",
      "name": "",
      "pack": "",
      "id": ""
    },
    "changes": [],
    "changeFlags": {
      "loseDexToAC": false,
      "noStr": false,
      "noDex": false,
      "noInt": false,
      "noCon": false,
      "oneInt": false,
      "oneWis": false,
      "oneCha": false,
      "noEncumbrance": false,
      "mediumArmorFullSpeed": false,
      "heavyArmorFullSpeed": false,
      "multiAttack": false,
      "multiweaponAttack": false,
      "uncannyDodge": false,
      "improvedMultiattack": false,
      "hasted": false,
      "firstChangeTargetSelectableOnDescription": false
    },
    "conditionFlags": {
      "dazzled": false,
      "wildshaped": false,
      "polymorphed": false
    },
    "combatChanges": [],
    "combatChangesRange": {
      "maxFormula": "",
      "max": 0
    },
    "combatChangesAdditionalRanges": {
      "hasAdditionalRanges": false,
      "slider1": {
        "maxFormula": "",
        "max": 0,
        "name": ""
      },
      "slider2": {
        "maxFormula": "",
        "max": 0,
        "name": ""
      },
      "slider3": {
        "maxFormula": "",
        "max": 0,
        "name": ""
      }
    },
    "combatChangesUsesCost": "chargesPerUse",
    "combatChangesApplySpecialActionsOnce": true,
    "combatChangeCustomDisplayName": "",
    "combatChangeCustomReferenceName": "",
    "sizeOverride": "",
    "counterName": "",
    "resistances": [],
    "damageReduction": [],
    "requirements": [],
    "creationChanges": [],
    "contextNotes": [],
    "featType": "classFeat",
    "abilityType": "",
    "associations": {
      "classes": [
        [
          "Loremaster",
          1
        ],
        [
          "Loremaster",
          3
        ],
        [
          "Loremaster",
          5
        ],
        [
          "Loremaster",
          7
        ],
        [
          "Loremaster",
          9
        ]
      ]
    },
    "crOffset": "",
    "spellSpecializationName": "",
    "spellSpecializationForbiddenNames": "",
    "linkedItems": [],
    "metamagic": {
      "enabled": false,
      "shortDesc": "",
      "code": ""
    },
    "spellSpecialization": {
      "isDomain": false,
      "spells": {
        "level1": {
          "level": 1,
          "name": "",
          "img": "",
          "pack": null,
          "id": null
        },
        "level2": {
          "level": 2,
          "name": "",
          "img": "",
          "pack": null,
          "id": null
        },
        "level3": {
          "level": 3,
          "name": "",
          "img": "",
          "pack": null,
          "id": null
        },
        "level4": {
          "level": 4,
          "name": "",
          "img": "",
          "pack": null,
          "id": null
        },
        "level5": {
          "level": 5,
          "name": "",
          "img": "",
          "pack": null,
          "id": null
        },
        "level6": {
          "level": 6,
          "name": "",
          "img": "",
          "pack": null,
          "id": null
        },
        "level7": {
          "level": 7,
          "name": "",
          "img": "",
          "pack": null,
          "id": null
        },
        "level8": {
          "level": 8,
          "name": "",
          "img": "",
          "pack": null,
          "id": null
        },
        "level9": {
          "level": 9,
          "name": "",
          "img": "",
          "pack": null,
          "id": null
        }
      }
    },
    "showInQuickbar": false,
    "links": {
      "charges": []
    },
    "equippedWeightless": false,
    "carried": false,
    "resalePrice": null,
    "brokenResalePrice": null,
    "fullResalePrice": false,
    "constantWeight": false,
    "bookSource": "",
    "conditionals": [],
    "activateActions": [],
    "deactivateActions": [],
    "perRoundActions": [],
    "container": "None",
    "containerWeightless": false,
    "identifiedName": "Secret",
    "index": {
      "subType": "classFeat",
      "uniqueId": "user-loremaster-secret"
    }
  },
  "effects": [],
  "folder": null,
  "ownership": {
    "default": 0,
    "pukqaXS9wqBDIqB8": 3
  },
  "flags": {
    "core": {}
  },
  "_stats": {
    "systemId": "D35E",
    "systemVersion": "2.4.3",
    "coreVersion": "11.315",
    "createdTime": 1709309134826,
    "modifiedTime": 1714376221473,
    "lastModifiedBy": "pukqaXS9wqBDIqB8"
  },
  "_id": "B2lO0GHhvJFzzMCU",
  "sort": 300000,
  "_key": "!items!B2lO0GHhvJFzzMCU"
}
