{
  "_id": "3vfZQsaV4jB0vYZm",
  "name": "Centurion's Shield",
  "type": "spell",
  "img": "modules/snogard-compendium/icons/spells/centurion-shield.webp",
  "effects": [],
  "folder": null,
  "sort": 6100000,
  "flags": {
    "core": {
      "sourceId": "Item.4RC2U8oM5iYrUGLh"
    }
  },
  "system": {
    "originVersion": 0,
    "originPack": "",
    "originId": "",
    "possibleUpdate": false,
    "description": {
      "value": "<div class=\"spell-description\">\n  <p>\n      <strong>School:</strong>&nbsp;abjuration&nbsp;[force, soluble];\n    <br>\n    <strong>Level:</strong>&nbsp;Cleric 1, Paladin 1, Sorcerer 1, Wizard 1;\n    \n    \n    \n    \n    <br>\n    <strong>Components:</strong>&nbsp;V, S, scales from a turtle<br>\n    \n      <strong>Casting Time:</strong>&nbsp;1 standard action<br>\n    <strong>Range:</strong>&nbsp;personal<br>\n    \n    <strong>Target:</strong>&nbsp;You<br>\n    \n    <strong>Duration:</strong>&nbsp;1 hour/level<br>\n    \n  </p>\n  <h2>Description</h2>\n  <p><span data-sheets-formula-bar-text-style=\"font-size:13px;color:#000000;font-weight:normal;text-decoration:none;font-family:'Arial';font-style:normal;text-decoration-skip-ink:none;\">You create a glowing, translucent shield of force energy that is projected from your forearm, granting you a +4 shield bonus to AC. This bonus also applies against incorporeal touch attacks, since it is a force effect. The centurion&rsquo;s shield has no hardness, and has 10 hit points per caster level you possess (to a maximum of 100 hit points at 10th level). Opponents can attempt to sunder the shield as though it were a real object. Additionally, whenever an attack misses you by 4 or less, the attacker rolls damage normally and applies it to the shield. Finally, any damaging spell effects that target you specifically are redirected to the shield, dealing their damage to it, rather than to you. If the shield&rsquo;s hit points are reduced to 0, the spell ends.</span></p>\n</div>\n",
      "chat": "",
      "unidentified": ""
    },
    "epic": "",
    "psionic": "",
    "nameFormula": "",
    "nameFromFormula": false,
    "tags": [],
    "uniqueId": "",
    "addedLevel": 0,
    "linkId": "",
    "linkSourceId": "",
    "linkImported": false,
    "linkSourceName": "",
    "source": "",
    "classSource": "",
    "userNonRemovable": false,
    "customAttributes": {},
    "customAttributesLocked": false,
    "customTag": "",
    "createdBy": "",
    "activation": {
      "cost": 1,
      "type": "standard"
    },
    "duration": {
      "value": null,
      "units": ""
    },
    "target": {
      "value": "You"
    },
    "range": {
      "value": null,
      "units": "personal"
    },
    "recharge": {
      "enabled": false,
      "formula": "",
      "current": 0
    },
    "uses": {
      "value": 0,
      "max": 0,
      "per": null,
      "autoDeductCharges": true,
      "allowMultipleUses": false,
      "chargesPerUse": 1,
      "maxPerUse": null,
      "maxPerUseFormula": "",
      "maxFormula": "",
      "rechargeFormula": null,
      "isResource": false,
      "canBeLinked": false
    },
    "requiresPsionicFocus": false,
    "linkedChargeItem": {
      "id": null,
      "img": null,
      "name": null
    },
    "measureTemplate": {
      "type": "",
      "size": "",
      "overrideColor": false,
      "customColor": "",
      "overrideTexture": false,
      "customTexture": ""
    },
    "actionType": "other",
    "attackBonus": "",
    "critConfirmBonus": "",
    "damage": {
      "parts": [],
      "alternativeParts": []
    },
    "summon": [],
    "attackParts": [],
    "autoscaleAttackParts": "",
    "formula": "",
    "attackCountFormula": "",
    "maxDamageDice": 0,
    "maxDamageDiceFormula": "",
    "ability": {
      "attack": null,
      "damage": "",
      "damageMult": 1,
      "critRange": "20",
      "critMult": 2,
      "twoHandedOnly": false,
      "vsTouchAc": false
    },
    "save": {
      "dc": "0",
      "description": "",
      "ability": "",
      "type": "",
      "dcAutoType": "",
      "dcAutoAbility": ""
    },
    "baseCl": "0",
    "sr": false,
    "pr": false,
    "metamagicFeats": {
      "maximized": false,
      "empowered": false,
      "enlarged": false,
      "intensified": false,
      "enhanced": false,
      "enhancedHalf": false,
      "widened": false
    },
    "effectNotes": "Shield HP: [[ min(100, 10*@cl) ]]",
    "attackNotes": "",
    "specialActions": [
      {
        "name": "Centurion Shield",
        "action": "Create unique \"Centurion Shield\" from \"snogard-compendium.magical-effects-d35e\" on target;Set buff \"Centurion Shield\" field data.level to max(1,(@cl)) on target;Activate buff \"Centurion Shield\" on target",
        "condition": "",
        "img": "modules/snogard-compendium/icons/spells/centurion-shield.webp"
      }
    ],
    "favorite": false,
    "rollTableDraw": {
      "formula": "",
      "name": "",
      "pack": "",
      "id": ""
    },
    "learnedAt": {
      "class": [
        [
          "Sorcerer",
          1
        ],
        [
          "Wizard",
          1
        ],
        [
          "Cleric",
          1
        ],
        [
          "Paladin",
          1
        ]
      ],
      "domain": [],
      "subDomain": [],
      "elementalSchool": [],
      "bloodline": []
    },
    "level": 1,
    "clOffset": 0,
    "slOffset": 0,
    "school": "abj",
    "subschool": "",
    "types": "force, soluble",
    "components": {
      "value": "scales from a turtle",
      "verbal": true,
      "somatic": true,
      "material": false,
      "focus": false,
      "divineFocus": 2
    },
    "castTime": "",
    "conditionals": [],
    "materials": {
      "value": "",
      "consumed": {
        "value": false,
        "_deprecated": true
      },
      "focus": ""
    },
    "isSpellSpontaneousReplacement": false,
    "spellbook": "primary",
    "preparation": {
      "preparedAmount": 0,
      "maxAmount": 0,
      "autoDeductCharges": true
    },
    "atWill": false,
    "powerPointsCost": null,
    "display": "",
    "isPower": false,
    "shortDescription": "<p><span data-sheets-formula-bar-text-style=\"font-size:13px;color:#000000;font-weight:normal;text-decoration:none;font-family:'Arial';font-style:normal;text-decoration-skip-ink:none;\">You create a glowing, translucent shield of force energy that is projected from your forearm, granting you a +4 shield bonus to AC. This bonus also applies against incorporeal touch attacks, since it is a force effect. The centurion&rsquo;s shield has no hardness, and has 10 hit points per caster level you possess (to a maximum of 100 hit points at 10th level). Opponents can attempt to sunder the shield as though it were a real object. Additionally, whenever an attack misses you by 4 or less, the attacker rolls damage normally and applies it to the shield. Finally, any damaging spell effects that target you specifically are redirected to the shield, dealing their damage to it, rather than to you. If the shield&rsquo;s hit points are reduced to 0, the spell ends.</span></p>",
    "snip": "+4 force shield with 10hp/level (max 100)",
    "spellDuration": "1 hour/level",
    "spellEffect": "",
    "spellArea": "",
    "spellType": {
      "value": "",
      "_deprecated": true
    },
    "showInQuickbar": false,
    "specialPrepared": false,
    "isDomainSpell": false,
    "specialId": null,
    "changes": [],
    "combatChanges": [],
    "requirements": [],
    "creationChanges": [],
    "resistances": [],
    "damageReduction": [],
    "contextNotes": [],
    "activateActions": [],
    "deactivateActions": [],
    "perRoundActions": [],
    "container": "None",
    "containerWeightless": false,
    "identifiedName": "Centurion's Shield",
    "spellDurationData": {
      "units": "hourPerLevel",
      "dismissable": false,
      "value": "1"
    },
    "index": {
      "subType": null,
      "uniqueId": ""
    }
  },
  "ownership": {
    "default": 0,
    "4cMyZW2CYs4YQpDm": 3
  },
  "_stats": {
    "systemId": "D35E",
    "systemVersion": "2.4.3",
    "coreVersion": "11.315",
    "createdTime": null,
    "modifiedTime": 1720971138597,
    "lastModifiedBy": "pukqaXS9wqBDIqB8"
  },
  "_key": "!items!3vfZQsaV4jB0vYZm"
}
