{
  "name": "Imbue With Spell Ability",
  "type": "spell",
  "system": {
    "originVersion": 0,
    "originPack": "",
    "originId": "",
    "possibleUpdate": false,
    "description": {
      "value": "",
      "chat": "",
      "unidentified": ""
    },
    "epic": "",
    "psionic": "",
    "nameFormula": "",
    "nameFromFormula": false,
    "tags": [],
    "uniqueId": "",
    "addedLevel": 0,
    "linkId": "",
    "linkSourceId": "",
    "linkImported": false,
    "linkSourceName": "",
    "source": "",
    "classSource": "",
    "userNonRemovable": false,
    "customAttributes": {},
    "customAttributesLocked": false,
    "customTag": "",
    "createdBy": "",
    "activation": {
      "cost": 10,
      "type": "minute"
    },
    "duration": {
      "value": null,
      "units": ""
    },
    "target": {
      "value": "Creature touched; see text"
    },
    "range": {
      "value": null,
      "units": "touch"
    },
    "recharge": {
      "enabled": false,
      "formula": "",
      "current": 0
    },
    "uses": {
      "value": 0,
      "max": 0,
      "per": null,
      "autoDeductCharges": true,
      "allowMultipleUses": false,
      "chargesPerUse": 1,
      "maxPerUse": null,
      "maxPerUseFormula": "",
      "maxFormula": "",
      "rechargeFormula": null,
      "isResource": false,
      "canBeLinked": false
    },
    "requiresPsionicFocus": false,
    "linkedChargeItem": {
      "id": null,
      "img": null,
      "name": null
    },
    "measureTemplate": {
      "type": "",
      "size": "",
      "overrideColor": false,
      "customColor": "",
      "overrideTexture": false,
      "customTexture": ""
    },
    "actionType": "spellsave",
    "attackBonus": "",
    "critConfirmBonus": "",
    "damage": {
      "parts": [],
      "alternativeParts": []
    },
    "summon": [],
    "attackParts": [],
    "autoscaleAttackParts": "",
    "formula": "",
    "attackCountFormula": "",
    "maxDamageDice": 0,
    "maxDamageDiceFormula": "",
    "ability": {
      "attack": null,
      "damage": "",
      "damageMult": 1,
      "critRange": "20",
      "critMult": 2,
      "twoHandedOnly": false,
      "vsTouchAc": false
    },
    "save": {
      "dc": "0",
      "description": "",
      "ability": "",
      "type": "willnegates",
      "dcAutoType": "",
      "dcAutoAbility": ""
    },
    "baseCl": "0",
    "sr": true,
    "pr": false,
    "metamagicFeats": {
      "maximized": false,
      "empowered": false,
      "enlarged": false,
      "intensified": false,
      "enhanced": false,
      "enhancedHalf": false,
      "widened": false
    },
    "effectNotes": "",
    "attackNotes": "",
    "specialActions": [],
    "favorite": false,
    "rollTableDraw": {
      "formula": "",
      "name": "",
      "pack": "",
      "id": ""
    },
    "learnedAt": {
      "class": [
        [
          "Cleric",
          4
        ],
        [
          "Magewright",
          4
        ],
        [
          "Apostle of Peace",
          4
        ]
      ],
      "domain": [
        [
          "Magic",
          4
        ],
        [
          "Family",
          4
        ]
      ],
      "subDomain": [],
      "elementalSchool": [],
      "bloodline": []
    },
    "level": 4,
    "clOffset": 0,
    "slOffset": 0,
    "school": "evo",
    "subschool": "",
    "types": "",
    "components": {
      "value": "",
      "verbal": true,
      "somatic": true,
      "material": false,
      "focus": false,
      "divineFocus": 1
    },
    "castTime": "",
    "conditionals": [],
    "materials": {
      "value": "",
      "consumed": {
        "value": false,
        "_deprecated": true
      },
      "focus": ""
    },
    "isSpellSpontaneousReplacement": false,
    "spellbook": "primary",
    "preparation": {
      "preparedAmount": 0,
      "maxAmount": 0,
      "autoDeductCharges": true
    },
    "atWill": false,
    "powerPointsCost": 7,
    "display": "",
    "isPower": false,
    "shortDescription": "<p>You transfer some of your currently prepared spells, and the ability to cast them, to another creature. Only a creature with an Intelligence score of at least 5 and a Wisdom score of at least 9 can receive this bestowal. Only&nbsp;<a href=\"https://dnd.arkalseif.info/classes/cleric/index.html\">cleric</a>&nbsp;spells from the schools of&nbsp;<a href=\"https://dnd.arkalseif.info/spells/schools/abjuration/index.html\">abjuration</a>,&nbsp;<a href=\"https://dnd.arkalseif.info/spells/schools/divination/index.html\">divination</a>, and&nbsp;<a href=\"https://dnd.arkalseif.info/spells/sub-schools/healing/index.html\">conjuration (healing)</a>&nbsp;can be transferred. The number and level of spells that the subject can be granted depends on its Hit Dice; even multiple castings of imbue with spell ability can't exceed this limit.</p>\n<table>\n<tbody>\n<tr>\n<th>HD of Recipient</th>\n<th>Spells Imbued</th>\n</tr>\n<tr>\n<td>2 or lower</td>\n<td>One 1st-level spell</td>\n</tr>\n<tr>\n<td>3&mdash;4</td>\n<td>One or two 1st-level spells</td>\n</tr>\n<tr>\n<td>5 or higher</td>\n<td>One or two 1st-level spells and one 2nd-level spell</td>\n</tr>\n</tbody>\n</table>\n<p>The transferred spell's variable characteristics (range, duration, area, and the like) function according to your level, not the level of the recipient.</p>\n<p>Once you cast&nbsp;<em>imbue with spell ability</em>, you cannot prepare a new 4th-level spell to replace it until the recipient uses the imbued spells or is slain, or until you dismiss the&nbsp;<em>imbue with spell ability</em>&nbsp;spell. In the meantime, you remain responsible to your deity or your principles for the use to which the spell is put. If the number of 4th-level spells you can cast decreases, and that number drops below your current number of active&nbsp;<em>imbue with spell ability</em>&nbsp;spells, the more recently cast imbued spells are dispelled.</p>\n<p>To cast a spell with a verbal component, the subject must be able to speak. To cast a spell with a somatic component, it must have humanlike hands. To cast a spell with a material component or focus, it must have the materials or focus.</p>",
    "snip": "lend your cleric spells to another",
    "spellDuration": "",
    "spellEffect": "",
    "spellArea": "",
    "spellType": {
      "value": "",
      "_deprecated": true
    },
    "showInQuickbar": false,
    "specialPrepared": false,
    "isDomainSpell": false,
    "specialId": null,
    "contextNotes": [],
    "activateActions": [],
    "deactivateActions": [],
    "perRoundActions": [],
    "container": "None",
    "containerWeightless": false,
    "changes": [],
    "combatChanges": [],
    "requirements": [],
    "creationChanges": [],
    "resistances": [],
    "damageReduction": [],
    "identifiedName": "Imbue With Spell Ability",
    "index": {
      "subType": null,
      "uniqueId": ""
    },
    "spellDurationData": {
      "units": "perm",
      "dismissable": true
    }
  },
  "img": "modules/snogard-compendium/icons/spells/imbue-with-spell-ability.webp",
  "effects": [],
  "folder": null,
  "ownership": {
    "default": 0,
    "MHPVeOgkhKLqBw6h": 3,
    "pukqaXS9wqBDIqB8": 3
  },
  "flags": {
    "core": {}
  },
  "_stats": {
    "systemId": "D35E",
    "systemVersion": "2.4.3",
    "coreVersion": "11.315",
    "createdTime": 1720538555657,
    "modifiedTime": 1720996549014,
    "lastModifiedBy": "pukqaXS9wqBDIqB8"
  },
  "_id": "NL5jE9DweSyND35E",
  "sort": 0,
  "_key": "!items!NL5jE9DweSyND35E"
}
