{
  "name": "No Light",
  "type": "spell",
  "img": "modules/snogard-compendium/icons/spells/no-light.webp",
  "system": {
    "originVersion": 0,
    "originPack": "",
    "originId": "",
    "possibleUpdate": false,
    "description": {
      "value": "",
      "chat": "",
      "unidentified": ""
    },
    "epic": "",
    "psionic": "",
    "nameFormula": "",
    "nameFromFormula": false,
    "tags": [],
    "uniqueId": "",
    "addedLevel": 0,
    "linkId": "",
    "linkSourceId": "",
    "linkImported": false,
    "linkSourceName": "",
    "source": "",
    "classSource": "",
    "userNonRemovable": false,
    "customAttributes": {},
    "customAttributesLocked": false,
    "customTag": "",
    "createdBy": "",
    "activation": {
      "cost": 1,
      "type": "standard"
    },
    "duration": {
      "value": null,
      "units": ""
    },
    "target": {
      "value": ""
    },
    "range": {
      "value": null,
      "units": "close"
    },
    "recharge": {
      "enabled": false,
      "formula": "",
      "current": 0
    },
    "uses": {
      "value": 0,
      "max": 0,
      "per": null,
      "autoDeductCharges": true,
      "allowMultipleUses": false,
      "chargesPerUse": 1,
      "maxPerUse": null,
      "maxPerUseFormula": "",
      "maxFormula": "",
      "rechargeFormula": null,
      "isResource": false,
      "canBeLinked": false
    },
    "requiresPsionicFocus": false,
    "linkedChargeItem": {
      "id": null,
      "img": null,
      "name": null
    },
    "measureTemplate": {
      "type": "circle",
      "size": "20",
      "overrideColor": false,
      "customColor": "#000000",
      "overrideTexture": false,
      "customTexture": ""
    },
    "actionType": "",
    "attackBonus": "",
    "critConfirmBonus": "",
    "damage": {
      "parts": [],
      "alternativeParts": []
    },
    "summon": [],
    "attackParts": [],
    "autoscaleAttackParts": "",
    "formula": "",
    "attackCountFormula": "",
    "maxDamageDice": 0,
    "maxDamageDiceFormula": "",
    "ability": {
      "attack": null,
      "damage": null,
      "damageMult": 1,
      "critRange": "20",
      "critMult": 2,
      "twoHandedOnly": false,
      "vsTouchAc": false
    },
    "save": {
      "dc": 0,
      "description": "",
      "ability": "",
      "type": "",
      "dcAutoType": "",
      "dcAutoAbility": ""
    },
    "baseCl": "0",
    "sr": false,
    "pr": false,
    "metamagicFeats": {
      "maximized": false,
      "empowered": false,
      "enlarged": false,
      "intensified": false,
      "enhanced": false,
      "enhancedHalf": false,
      "widened": false
    },
    "effectNotes": "",
    "attackNotes": "",
    "specialActions": [],
    "favorite": false,
    "rollTableDraw": {
      "formula": "",
      "name": "",
      "pack": "",
      "id": ""
    },
    "learnedAt": {
      "class": [
        [
          "Bard",
          0
        ],
        [
          "Cleric",
          0
        ],
        [
          "Sorcerer",
          0
        ],
        [
          "Wizard",
          0
        ]
      ],
      "domain": [],
      "subDomain": [],
      "elementalSchool": [],
      "bloodline": []
    },
    "level": 1,
    "clOffset": 0,
    "slOffset": 0,
    "school": "trs",
    "subschool": "",
    "types": "",
    "components": {
      "value": "",
      "verbal": true,
      "somatic": true,
      "material": false,
      "focus": false,
      "divineFocus": 0
    },
    "castTime": "",
    "conditionals": [],
    "materials": {
      "value": "",
      "consumed": {
        "value": false,
        "_deprecated": true
      },
      "focus": ""
    },
    "isSpellSpontaneousReplacement": false,
    "spellbook": "primary",
    "preparation": {
      "preparedAmount": 0,
      "maxAmount": 0,
      "autoDeductCharges": true
    },
    "atWill": false,
    "powerPointsCost": 0,
    "display": "",
    "isPower": false,
    "shortDescription": "<p>Warning: This is 3.0 Edition material.</p>\n<p>The caster creates an area of darkness.<br>Normal light sources cannot illuminate the area, but darkvision allows a creature to see within the area.<br>Light counters no light (and vice versa), leaving whatever light conditions normally prevail in the overlapping areas of the spells.<br>Higher-level light spells counter and dispel no light.</p>",
    "snip": "20ft radius area of darkness",
    "spellDuration": "",
    "spellEffect": "",
    "spellArea": "20-ft.-radius spread",
    "spellType": {
      "value": "",
      "_deprecated": true
    },
    "showInQuickbar": false,
    "specialPrepared": false,
    "isDomainSpell": false,
    "specialId": null,
    "index": {
      "subType": null,
      "uniqueId": ""
    },
    "contextNotes": [],
    "activateActions": [],
    "deactivateActions": [],
    "perRoundActions": [],
    "container": "None",
    "containerWeightless": false,
    "changes": [],
    "combatChanges": [],
    "requirements": [],
    "creationChanges": [],
    "resistances": [],
    "damageReduction": [],
    "identifiedName": "No Light",
    "spellDurationData": {
      "units": "minutePerLevel",
      "dismissable": false,
      "value": "1"
    }
  },
  "effects": [],
  "folder": null,
  "ownership": {
    "default": 0,
    "SGnRBcdqyraLBzfX": 3
  },
  "flags": {
    "core": {}
  },
  "_stats": {
    "systemId": "D35E",
    "systemVersion": "2.4.3",
    "coreVersion": "11.315",
    "createdTime": 1697311324297,
    "modifiedTime": 1720971138597,
    "lastModifiedBy": "pukqaXS9wqBDIqB8"
  },
  "_id": "3ot1b3YIgMuKaZlf",
  "sort": 4500000,
  "_key": "!items!3ot1b3YIgMuKaZlf"
}
