{
  "folder": null,
  "name": "Shield Companion (AA)",
  "type": "spell",
  "img": "modules/snogard-compendium/icons/spells/shield-companion.webp",
  "system": {
    "originVersion": 0,
    "originPack": "",
    "originId": "",
    "possibleUpdate": false,
    "description": {
      "value": "",
      "chat": "",
      "unidentified": ""
    },
    "epic": "",
    "psionic": "",
    "nameFormula": "",
    "nameFromFormula": false,
    "tags": [],
    "uniqueId": "",
    "addedLevel": 0,
    "linkId": "",
    "linkSourceId": "",
    "linkImported": false,
    "linkSourceName": "",
    "source": "",
    "classSource": "",
    "userNonRemovable": false,
    "customAttributes": {},
    "customAttributesLocked": false,
    "customTag": "",
    "createdBy": "",
    "activation": {
      "cost": 1,
      "type": "standard"
    },
    "duration": {
      "value": null,
      "units": ""
    },
    "target": {
      "value": "your animal companion, familiar, or fiendish servant"
    },
    "range": {
      "value": null,
      "units": "close"
    },
    "recharge": {
      "enabled": false,
      "formula": "",
      "current": 0
    },
    "uses": {
      "value": 0,
      "max": 0,
      "per": null,
      "autoDeductCharges": true,
      "allowMultipleUses": false,
      "chargesPerUse": 1,
      "maxPerUse": null,
      "maxPerUseFormula": "",
      "maxFormula": "",
      "rechargeFormula": null,
      "isResource": false,
      "canBeLinked": false
    },
    "requiresPsionicFocus": false,
    "linkedChargeItem": {
      "id": null,
      "img": null,
      "name": null
    },
    "measureTemplate": {
      "type": "",
      "size": "",
      "overrideColor": false,
      "customColor": "",
      "overrideTexture": false,
      "customTexture": ""
    },
    "actionType": "spellsave",
    "attackBonus": "",
    "critConfirmBonus": "",
    "damage": {
      "parts": [],
      "alternativeParts": []
    },
    "summon": [],
    "attackParts": [],
    "autoscaleAttackParts": "",
    "formula": "",
    "attackCountFormula": "",
    "maxDamageDice": 0,
    "maxDamageDiceFormula": "",
    "ability": {
      "attack": null,
      "damage": "",
      "damageMult": 1,
      "critRange": "20",
      "critMult": 2,
      "twoHandedOnly": false,
      "vsTouchAc": false
    },
    "save": {
      "dc": "0",
      "description": "",
      "ability": "",
      "type": "willnegates",
      "dcAutoType": "",
      "dcAutoAbility": ""
    },
    "baseCl": "0",
    "sr": true,
    "pr": false,
    "metamagicFeats": {
      "maximized": false,
      "empowered": false,
      "enlarged": false,
      "intensified": false,
      "enhanced": false,
      "enhancedHalf": false,
      "widened": false
    },
    "effectNotes": "",
    "attackNotes": "",
    "specialActions": [
      {
        "name": "Shield Other",
        "action": "Create unique \"Shield Other\" from \"D35E.commonbuffs\" on target;Set buff \"Shield Other\" field data.level to max(1,(@cl)) on target;Activate buff \"Shield Other\" on target",
        "condition": "",
        "img": "systems/D35E/icons/spells/named-spells/shield-other.png"
      }
    ],
    "favorite": false,
    "rollTableDraw": {
      "formula": "",
      "name": "",
      "pack": "",
      "id": ""
    },
    "learnedAt": {
      "class": [
        [
          "Antipaladin",
          1
        ],
        [
          "Druid",
          1
        ],
        [
          "Paladin",
          1
        ],
        [
          "Ranger",
          1
        ],
        [
          "Sorcerer",
          1
        ],
        [
          "Wizard",
          1
        ],
        [
          "Witch",
          1
        ]
      ],
      "domain": [],
      "subDomain": [],
      "elementalSchool": [],
      "bloodline": []
    },
    "level": 1,
    "clOffset": 0,
    "slOffset": 0,
    "school": "abj",
    "subschool": "",
    "types": "",
    "components": {
      "value": "",
      "verbal": true,
      "somatic": true,
      "material": false,
      "focus": true,
      "divineFocus": 0
    },
    "castTime": "",
    "conditionals": [],
    "materials": {
      "value": "",
      "consumed": {
        "value": false,
        "_deprecated": true
      },
      "focus": "A pair of platinum rings (worth at least 50 gp each) worn by both you and the warded creature."
    },
    "isSpellSpontaneousReplacement": false,
    "spellbook": "primary",
    "preparation": {
      "preparedAmount": 0,
      "maxAmount": 0,
      "autoDeductCharges": true
    },
    "atWill": false,
    "powerPointsCost": 0,
    "display": "",
    "isPower": false,
    "shortDescription": "<p><strong>Warning</strong>: this is Pathfinder 1 material</p>\n<p>This spell functions as @UUID[Compendium.D35E.spells.Item.zR1vLtwDiF58zXOY]{Shield Other} but affects only the caster&rsquo;s <a href=\"https://www.d20pfsrd.com/classes/core-classes/druid/animal-companions\">animal companion</a> or <a href=\"https://www.d20pfsrd.com/bestiary/monster-listings/animals/familiar\">familiar</a>. Spellcasters from classes that do not normally gain an <a href=\"https://www.d20pfsrd.com/classes/core-classes/druid/animal-companions\">animal companion</a>, <a href=\"https://www.d20pfsrd.com/bestiary/monster-listings/animals/familiar\">familiar</a>, or <a href=\"https://www.d20pfsrd.com/bestiary/monster-listings/templates/fiendish\">fiendish</a> servant but who gain one through an alternate class feature, archetype, or prestige class can prepare and cast this spell as a 1st-level spell if they are capable of casting spells.</p>\n<p>&nbsp;</p>\n<p><strong>Shield Other</strong>:&nbsp;</p>\n<p>This spell wards the subject and creates a mystic connection between you and the subject so that some of its wounds are transferred to you. The subject gains a +1 deflection bonus to AC and a +1 resistance bonus on saves. Additionally, the subject takes only half damage from all wounds and attacks (including that dealt by special abilities) that deal hit point damage. The amount of damage not taken by the warded creature is taken by you. Forms of harm that do not involve hit points, such as&nbsp;<em>charm&nbsp;</em>effects, temporary ability damage, level draining, and death effects, are not affected. If the subject suffers a reduction of hit points from a lowered Constitution score, the reduction is not split with you because it is not hit point damage. When the spell ends, subsequent damage is no longer divided between the subject and you, but damage already split is not reassigned to the subject.</p>\n<p>If you and the subject of the spell move out of range of each other, the spell ends.</p>",
    "snip": "shield other for bonded creatures",
    "spellDuration": "",
    "spellEffect": "",
    "spellArea": "",
    "spellType": {
      "value": "",
      "_deprecated": true
    },
    "showInQuickbar": false,
    "specialPrepared": false,
    "isDomainSpell": false,
    "specialId": null,
    "contextNotes": [],
    "activateActions": [],
    "deactivateActions": [],
    "perRoundActions": [],
    "container": "None",
    "containerWeightless": false,
    "changes": [],
    "combatChanges": [],
    "requirements": [],
    "creationChanges": [],
    "resistances": [],
    "damageReduction": [],
    "identifiedName": "Shield Companion (AA)",
    "index": {
      "subType": null,
      "uniqueId": ""
    },
    "spellDurationData": {
      "units": "hourPerLevel",
      "dismissable": true,
      "value": "1"
    }
  },
  "effects": [],
  "ownership": {
    "default": 0,
    "pukqaXS9wqBDIqB8": 3
  },
  "flags": {
    "core": {}
  },
  "_stats": {
    "systemId": "D35E",
    "systemVersion": "2.4.3",
    "coreVersion": "11.315",
    "createdTime": 1720887652233,
    "modifiedTime": 1720971138597,
    "lastModifiedBy": "pukqaXS9wqBDIqB8"
  },
  "_id": "QYaLD7tDyy2AZchT",
  "sort": 1200000,
  "_key": "!items!QYaLD7tDyy2AZchT"
}
