{
  "folder": null,
  "name": "Stalwart Pact",
  "type": "spell",
  "img": "modules/snogard-compendium/icons/spells/stalwart-pact.webp",
  "system": {
    "originVersion": 0,
    "originPack": "",
    "originId": "",
    "possibleUpdate": false,
    "description": {
      "value": "",
      "chat": "",
      "unidentified": ""
    },
    "epic": "",
    "psionic": "",
    "nameFormula": "",
    "nameFromFormula": false,
    "tags": [],
    "uniqueId": "",
    "addedLevel": 0,
    "linkId": "",
    "linkSourceId": "",
    "linkImported": false,
    "linkSourceName": "",
    "source": "",
    "classSource": "",
    "userNonRemovable": false,
    "customAttributes": {},
    "customAttributesLocked": false,
    "customTag": "",
    "createdBy": "",
    "activation": {
      "cost": 10,
      "type": "minute"
    },
    "duration": {
      "value": null,
      "units": ""
    },
    "target": {
      "value": "Willing living creature touched"
    },
    "range": {
      "value": null,
      "units": "touch"
    },
    "recharge": {
      "enabled": false,
      "formula": "",
      "current": 0
    },
    "uses": {
      "value": 0,
      "max": 0,
      "per": null,
      "autoDeductCharges": true,
      "allowMultipleUses": false,
      "chargesPerUse": 1,
      "maxPerUse": null,
      "maxPerUseFormula": "",
      "maxFormula": "",
      "rechargeFormula": null,
      "isResource": false,
      "canBeLinked": false
    },
    "requiresPsionicFocus": false,
    "linkedChargeItem": {
      "id": null,
      "img": null,
      "name": null
    },
    "measureTemplate": {
      "type": "",
      "size": "",
      "overrideColor": false,
      "customColor": "",
      "overrideTexture": false,
      "customTexture": ""
    },
    "actionType": "spellsave",
    "attackBonus": "",
    "critConfirmBonus": "",
    "damage": {
      "parts": [],
      "alternativeParts": []
    },
    "summon": [],
    "attackParts": [],
    "autoscaleAttackParts": "",
    "formula": "",
    "attackCountFormula": "",
    "maxDamageDice": 0,
    "maxDamageDiceFormula": "",
    "ability": {
      "attack": null,
      "damage": "",
      "damageMult": 1,
      "critRange": "20",
      "critMult": 2,
      "twoHandedOnly": false,
      "vsTouchAc": false
    },
    "save": {
      "dc": "0",
      "description": "",
      "ability": "",
      "type": "willnegates",
      "dcAutoType": "",
      "dcAutoAbility": ""
    },
    "baseCl": "0",
    "sr": true,
    "pr": false,
    "metamagicFeats": {
      "maximized": false,
      "empowered": false,
      "enlarged": false,
      "intensified": false,
      "enhanced": false,
      "enhancedHalf": false,
      "widened": false
    },
    "effectNotes": "",
    "attackNotes": "",
    "specialActions": [
      {
        "name": "Stalwart Pact",
        "action": "Create unique \"Stalwart Pact\" from \"snogard-compendium.magical-effects-d35e\" on target;Set buff \"Stalwart Pact\" field data.level to max(1,(@cl)) on target;",
        "condition": "",
        "img": "modules/snogard-compendium/icons/spells/stalwart-pact.webp"
      }
    ],
    "favorite": false,
    "rollTableDraw": {
      "formula": "",
      "name": "",
      "pack": "",
      "id": ""
    },
    "learnedAt": {
      "class": [
        [
          "Cleric",
          5
        ]
      ],
      "domain": [
        [
          "Pact",
          5
        ]
      ],
      "subDomain": [],
      "elementalSchool": [],
      "bloodline": []
    },
    "level": 5,
    "clOffset": 0,
    "slOffset": 0,
    "school": "evo",
    "subschool": "",
    "types": "",
    "components": {
      "value": "250 XP",
      "verbal": true,
      "somatic": true,
      "material": false,
      "focus": false,
      "divineFocus": 1
    },
    "castTime": "",
    "conditionals": [],
    "materials": {
      "value": "",
      "consumed": {
        "value": false,
        "_deprecated": true
      },
      "focus": ""
    },
    "isSpellSpontaneousReplacement": false,
    "spellbook": "primary",
    "preparation": {
      "preparedAmount": 0,
      "maxAmount": 0,
      "autoDeductCharges": true
    },
    "atWill": false,
    "powerPointsCost": 0,
    "display": "",
    "isPower": false,
    "shortDescription": "<p>This spell allows the target to enter a binding agreement with a deity that provides a measure of protection when the need is dire.</p>\n<p>Once this spell is cast, the pact remains dormant until the target is reduced to half or less of her full normal hit points</p>\n<p>The target immediately gains 5 temporary hit points per caster level, damage reduction of 5/magic, and a +4 luck bonus on saving throws.</p>\n<p>The hit points, damage reduction, and saving throw bonus evaporate when the spell ends.</p>",
    "snip": "",
    "spellDuration": "",
    "spellEffect": "",
    "spellArea": "",
    "spellType": {
      "value": "",
      "_deprecated": true
    },
    "showInQuickbar": false,
    "specialPrepared": false,
    "isDomainSpell": false,
    "specialId": null,
    "contextNotes": [],
    "activateActions": [],
    "deactivateActions": [],
    "perRoundActions": [],
    "container": "None",
    "containerWeightless": false,
    "changes": [],
    "combatChanges": [],
    "requirements": [],
    "creationChanges": [],
    "resistances": [],
    "damageReduction": [],
    "identifiedName": "Stalwart Pact",
    "index": {
      "subType": null,
      "uniqueId": ""
    },
    "spellDurationData": {
      "units": "perm",
      "dismissable": false
    }
  },
  "effects": [],
  "ownership": {
    "default": 0,
    "pukqaXS9wqBDIqB8": 3
  },
  "flags": {
    "core": {}
  },
  "_stats": {
    "systemId": "D35E",
    "systemVersion": "2.4.3",
    "coreVersion": "11.315",
    "createdTime": 1721145898996,
    "modifiedTime": 1721313715733,
    "lastModifiedBy": "pukqaXS9wqBDIqB8"
  },
  "_id": "A1reosMcWe9le76o",
  "sort": 0,
  "_key": "!items!A1reosMcWe9le76o"
}
