{
  "name": "Ectoplasmic Shambler",
  "type": "spell",
  "img": "modules/snogard-compendium/icons/spells/ectoplasmic-shambler.webp",
  "system": {
    "originVersion": 0,
    "originPack": "",
    "originId": "",
    "possibleUpdate": false,
    "description": {
      "value": "",
      "chat": "",
      "unidentified": ""
    },
    "epic": "",
    "psionic": "",
    "nameFormula": "",
    "nameFromFormula": false,
    "tags": [],
    "uniqueId": "",
    "addedLevel": 0,
    "linkId": "",
    "linkSourceId": "",
    "linkImported": false,
    "linkSourceName": "",
    "source": "",
    "classSource": "",
    "userNonRemovable": false,
    "customAttributes": {},
    "customAttributesLocked": false,
    "customTag": "",
    "createdBy": "",
    "activation": {
      "cost": 1,
      "type": "round"
    },
    "duration": {
      "value": null,
      "units": ""
    },
    "target": {
      "value": ""
    },
    "range": {
      "value": null,
      "units": "long"
    },
    "recharge": {
      "enabled": false,
      "formula": "",
      "current": 0
    },
    "uses": {
      "value": 0,
      "max": 0,
      "per": null,
      "autoDeductCharges": true,
      "allowMultipleUses": false,
      "chargesPerUse": 1,
      "maxPerUse": null,
      "maxPerUseFormula": "",
      "maxFormula": "",
      "rechargeFormula": null,
      "isResource": false,
      "canBeLinked": false
    },
    "requiresPsionicFocus": false,
    "linkedChargeItem": {
      "id": null,
      "img": null,
      "name": null
    },
    "measureTemplate": {
      "type": "",
      "size": "",
      "overrideColor": false,
      "customColor": "",
      "overrideTexture": false,
      "customTexture": ""
    },
    "actionType": "",
    "attackBonus": "",
    "critConfirmBonus": "",
    "damage": {
      "parts": [],
      "alternativeParts": []
    },
    "summon": [],
    "attackParts": [],
    "autoscaleAttackParts": "",
    "formula": "",
    "attackCountFormula": "",
    "maxDamageDice": 0,
    "maxDamageDiceFormula": "",
    "ability": {
      "attack": null,
      "damage": null,
      "damageMult": 1,
      "critRange": "20",
      "critMult": 2,
      "twoHandedOnly": false,
      "vsTouchAc": false
    },
    "save": {
      "dc": 0,
      "description": "",
      "ability": "",
      "type": "",
      "dcAutoType": "",
      "dcAutoAbility": ""
    },
    "baseCl": "0",
    "sr": false,
    "pr": false,
    "metamagicFeats": {
      "maximized": false,
      "empowered": false,
      "enlarged": false,
      "intensified": false,
      "enhanced": false,
      "enhancedHalf": false,
      "widened": false
    },
    "effectNotes": "",
    "attackNotes": "",
    "specialActions": [],
    "favorite": false,
    "rollTableDraw": {
      "formula": "",
      "name": "",
      "pack": "",
      "id": ""
    },
    "learnedAt": {
      "class": [
        [
          "Psion",
          5
        ],
        [
          "Wilder",
          5
        ]
      ],
      "domain": [],
      "subDomain": [],
      "elementalSchool": [],
      "bloodline": []
    },
    "level": 5,
    "clOffset": 0,
    "slOffset": 0,
    "school": "met",
    "subschool": "creation",
    "types": "",
    "components": {
      "value": "",
      "verbal": false,
      "somatic": false,
      "material": false,
      "focus": false,
      "divineFocus": 0
    },
    "castTime": "",
    "conditionals": [],
    "materials": {
      "value": "",
      "consumed": {
        "value": false,
        "_deprecated": true
      },
      "focus": ""
    },
    "isSpellSpontaneousReplacement": false,
    "spellbook": "primary",
    "preparation": {
      "preparedAmount": 0,
      "maxAmount": 0,
      "autoDeductCharges": true
    },
    "atWill": false,
    "powerPointsCost": 9,
    "display": " Auditory, Material, Olfactory, see text ",
    "isPower": false,
    "shortDescription": "<div class=\"field__item\">\n<p>You fashion an ephemeral, many-legged mass of pseudo-living ectoplasm called an <em>ectoplasmic shambler</em>. You can direct the shambler as a free action. It has a speed of 10 feet. It can completely surround objects (and opponents) over which it is manifested or onto which it moves, because it has the consistency of thick mist. The vision of those within the shambler is limited to 5 feet, and manifesting powers (or casting spells) within the shambler is difficult due to the constant turbulence felt by those caught in the shambler&rsquo;s form.</p>\n<p>Creatures enveloped by the shambler, regardless of Armor Class, take 1 point of damage for every two manifester levels you have in each round they become or remain within the roiling turbulence of the shambler. Anyone trying to manifest a power must make a <a href=\"https://dndtools.one/concentration\">Concentration</a> check (DC 15 + power&rsquo;s or spell&rsquo;s level) to successfully manifest a power or cast a spell inside the shambler.</p>\n<p>A wind stronger than 20 miles per hour that blows against the shambler reduces its speed to 0 feet during the first round, and in subsequent rounds moves it in the direction of the wind at a speed of 5 feet. A wind stronger than 20 miles per hour that blows in the direction the shambler travels increases its speed to 15 feet.</p>\n</div>",
    "snip": "",
    "spellDuration": "",
    "spellEffect": "",
    "spellArea": "One ectoplasmic manifestation of a size equal to ten 10 ft. cubes (S)",
    "spellType": {
      "value": "",
      "_deprecated": true
    },
    "showInQuickbar": false,
    "specialPrepared": false,
    "isDomainSpell": false,
    "specialId": null,
    "contextNotes": [],
    "activateActions": [],
    "deactivateActions": [],
    "perRoundActions": [],
    "container": "None",
    "containerWeightless": false,
    "changes": [],
    "combatChanges": [],
    "requirements": [],
    "creationChanges": [],
    "resistances": [],
    "damageReduction": [],
    "identifiedName": "Ectoplasmic Shambler",
    "index": {
      "subType": null,
      "uniqueId": ""
    },
    "spellDurationData": {
      "units": "minutePerLevel",
      "dismissable": false,
      "value": "1"
    }
  },
  "effects": [],
  "folder": null,
  "ownership": {
    "default": 0,
    "pukqaXS9wqBDIqB8": 3
  },
  "flags": {
    "core": {}
  },
  "_stats": {
    "systemId": "D35E",
    "systemVersion": "2.4.3",
    "coreVersion": "11.315",
    "createdTime": 1715602868469,
    "modifiedTime": 1721140824936,
    "lastModifiedBy": "pukqaXS9wqBDIqB8"
  },
  "_id": "QcAeJ2dvHphVvEZv",
  "sort": 800000,
  "_key": "!items!QcAeJ2dvHphVvEZv"
}
