{
  "folder": null,
  "name": "Induce Awe",
  "type": "spell",
  "img": "modules/snogard-compendium/icons/spells/induce-awe.webp",
  "system": {
    "originVersion": 0,
    "originPack": "",
    "originId": "",
    "possibleUpdate": false,
    "description": {
      "value": "",
      "chat": "",
      "unidentified": ""
    },
    "epic": "",
    "psionic": "",
    "nameFormula": "",
    "nameFromFormula": false,
    "tags": [],
    "uniqueId": "",
    "addedLevel": 0,
    "linkId": "",
    "linkSourceId": "",
    "linkImported": false,
    "linkSourceName": "",
    "source": "",
    "classSource": "",
    "userNonRemovable": false,
    "customAttributes": {},
    "customAttributesLocked": false,
    "customTag": "",
    "createdBy": "",
    "activation": {
      "cost": 1,
      "type": "standard"
    },
    "duration": {
      "value": null,
      "units": ""
    },
    "target": {
      "value": ""
    },
    "range": {
      "value": "30",
      "units": "ft"
    },
    "recharge": {
      "enabled": false,
      "formula": "",
      "current": 0
    },
    "uses": {
      "value": 0,
      "max": 0,
      "per": null,
      "autoDeductCharges": true,
      "allowMultipleUses": false,
      "chargesPerUse": 1,
      "maxPerUse": null,
      "maxPerUseFormula": "",
      "maxFormula": "",
      "rechargeFormula": null,
      "isResource": false,
      "canBeLinked": false
    },
    "requiresPsionicFocus": false,
    "linkedChargeItem": {
      "id": null,
      "img": null,
      "name": null
    },
    "measureTemplate": {
      "type": "",
      "size": "",
      "overrideColor": false,
      "customColor": "",
      "overrideTexture": false,
      "customTexture": ""
    },
    "actionType": "spellsave",
    "attackBonus": "",
    "critConfirmBonus": "",
    "damage": {
      "parts": [],
      "alternativeParts": []
    },
    "summon": [],
    "attackParts": [],
    "autoscaleAttackParts": "",
    "formula": "",
    "attackCountFormula": "",
    "maxDamageDice": 0,
    "maxDamageDiceFormula": "",
    "ability": {
      "attack": null,
      "damage": "",
      "damageMult": 1,
      "critRange": "20",
      "critMult": 2,
      "twoHandedOnly": false,
      "vsTouchAc": false
    },
    "save": {
      "dc": "0",
      "description": "",
      "ability": "",
      "type": "willnegates",
      "dcAutoType": "",
      "dcAutoAbility": ""
    },
    "baseCl": "0",
    "sr": false,
    "pr": true,
    "metamagicFeats": {
      "maximized": false,
      "empowered": false,
      "enlarged": false,
      "intensified": false,
      "enhanced": false,
      "enhancedHalf": false,
      "widened": false
    },
    "effectNotes": "",
    "attackNotes": "",
    "specialActions": [],
    "favorite": false,
    "rollTableDraw": {
      "formula": "",
      "name": "",
      "pack": "",
      "id": ""
    },
    "learnedAt": {
      "class": [
        [
          "Psion",
          2
        ],
        [
          "Wilder",
          2
        ]
      ],
      "domain": [],
      "subDomain": [],
      "elementalSchool": [],
      "bloodline": []
    },
    "level": 2,
    "clOffset": 0,
    "slOffset": 0,
    "school": "tel",
    "subschool": "charm",
    "types": "mind-affecting",
    "components": {
      "value": "",
      "verbal": false,
      "somatic": false,
      "material": false,
      "focus": false,
      "divineFocus": 0
    },
    "castTime": "",
    "conditionals": [],
    "materials": {
      "value": "",
      "consumed": {
        "value": false,
        "_deprecated": true
      },
      "focus": ""
    },
    "isSpellSpontaneousReplacement": false,
    "spellbook": "primary",
    "preparation": {
      "preparedAmount": 0,
      "maxAmount": 0,
      "autoDeductCharges": true
    },
    "atWill": false,
    "powerPointsCost": 3,
    "display": "Visual",
    "isPower": false,
    "shortDescription": "<p>This power is favored by the Inspired leaders of Riedra, who use it to enhance their influence over the humans of that land. When you manifest this power, you radiate psychic energy that reflects your innate power, granting a +4 morale bonus on Diplomacy and Intimidate checks made to influence others. When you stop concentrating on this power, any enemy within the area becomes shaken for 1 minute unless it succeeds on a Will save.</p>\n<div id=\"augments\"><strong>Augment</strong>: You can augment this power in one or both of the following ways.\n<ol>\n<li>For every 2 additional power points you spend, this power&acirc;&euro;&trade;s save DC increases by 1.</li>\n<li>For every 2 additional power points you spend, the bonus on Diplomacy and Intimidate checks increases by 1.</li>\n</ol>\n</div>",
    "snip": "+4 to diplomacy and intimidate to influence others",
    "spellDuration": "",
    "spellEffect": "",
    "spellArea": "30-ft.-radius spread centered on you",
    "spellType": {
      "value": "",
      "_deprecated": true
    },
    "showInQuickbar": false,
    "specialPrepared": false,
    "isDomainSpell": false,
    "specialId": null,
    "contextNotes": [],
    "activateActions": [],
    "deactivateActions": [],
    "perRoundActions": [],
    "container": "None",
    "containerWeightless": false,
    "changes": [],
    "combatChanges": [],
    "requirements": [],
    "creationChanges": [],
    "resistances": [],
    "damageReduction": [],
    "identifiedName": "Induce Awe",
    "index": {
      "subType": null,
      "uniqueId": ""
    },
    "spellDurationData": {
      "units": "minutePerLevel",
      "dismissable": true,
      "value": "Concentration, up to 1"
    }
  },
  "effects": [],
  "ownership": {
    "default": 0,
    "pukqaXS9wqBDIqB8": 3
  },
  "flags": {
    "core": {}
  },
  "_stats": {
    "systemId": "D35E",
    "systemVersion": "2.4.3",
    "coreVersion": "11.315",
    "createdTime": 1720886129669,
    "modifiedTime": 1721140824936,
    "lastModifiedBy": "pukqaXS9wqBDIqB8"
  },
  "_id": "Me6N4Vo0wOs4q32M",
  "sort": 1200000,
  "_key": "!items!Me6N4Vo0wOs4q32M"
}
