{
  "_id": "OV6Oxq2lHBBafOkh",
  "name": "Duskblade",
  "type": "class",
  "img": "icons/skills/melee/weapons-crossed-swords-teal.webp",
  "effects": [],
  "folder": null,
  "sort": 300000,
  "flags": {
    "core": {
      "sourceId": "Item.CL2fNmSDZwRO6GOZ"
    }
  },
  "system": {
    "originVersion": 0,
    "originPack": "",
    "originId": "",
    "possibleUpdate": false,
    "description": {
      "value": "<p>(<a href=\"https://dnd.arkalseif.info/classes/rulebook/players-handbook-ii--80/index.html\">Player's Handbook II</a> variant, p. 19)</p>\n<div class=\"nice-textile\">\n<p>If you find you can't choose between being an arcane spellcaster who zaps your enemies with powerful spells and a nimble, powerful front-line melee character who lays them low with a sword, the duskblade is the perfect class for you.</p>\n</div>\n<div class=\"nice-textile\">&nbsp;</div>\n<h4>Hit die</h4>\n<p>d8</p>\n<h4>Skill points</h4>\n<p>2 + Int</p>\n<h4>Class Features</h4>\n<p><strong>Weapon and Armor Proficiency:</strong> Duskblades are proficient with all simple and martial weapons, as well as all armors and shields (except tower shields).</p>\n<p><strong>Spells:</strong> A duskblade casts arcane spells, which are drawn from the duskblade spell list on page 24. Duskblade spells unique to this book appear on a spell list Page 98.</p>\n<p>To learn or cast a spell, you must have an Intelligence score equal to at least 10 + the spell level (Int 10 for 0-level spells, Int 11 for 1st-level spells, and so forth). The Difficulty Class for a saving throw against your spell is 10 + the spell level + your Int modifier.</p>\n<p>You can cast only a certain number of spells of each spell level per day. Your base daily spell allotment is given on Table 1&mdash;3. In addition, you receive bonus spells per day if you have a high Intelligence score (see Table 1&mdash;1: Ability Modifiers and Bonus Spells, page 8 of the <em>Player's Handbook</em>).</p>\n<p>A duskblade's caster level is equivalent to his class level.</p>\n<p><strong>Spells Known:</strong> You begin play knowing two 0-level spells and two 1st-level spells, chosen from the duskblade spell list. You also know one additional 0-level spell for each point of Intelligence bonus.<br />Each time you gain a new class level, you learn one additional spell of any level you can cast, chosen from the duskblade spell list.</p>\n<p>Upon reaching 5th level, and at every subsequent odd-numbered level, you can choose to learn a new spell in place of one you already know. In effect, you lose access to the old spell in exchange for gaining the new one. The new spell's level must be the same as that of the spell being exchanged, and it must be at least two levels lower than the highest-level spell you can cast. For instance, upon reaching 9th level, you could trade in a single 1st-level spell (two levels below the highest-level spell you can cast, which is 3rd) for a different 1st-level spell. You can swap only a single spell at any given level and must choose whether or not to swap the spell at the same time that you gain new spells known for the level.</p>\n<p>You need not prepare spells in advance. You can cast any spell you know at any time, assuming you have not yet used up your spells per day for that spell level.</p>\n<p><strong>Arcane Attunement (Sp):</strong> You can use the spell-like powers <em>dancing lights</em>, <em>detect magic</em>, <em>flare</em>, <em>ghost sound</em>, and <em>read magic</em> a combined total of times per day equal to 3 + your Int modifier. These spell-like powers do not count against your total of spells known or spells per day.</p>\n<p><strong>Armored Mage (Ex):</strong> Normally, armor of any type interferes with an arcane spellcaster's gestures, which can cause spells to fail if those spells have a somatic component. A duskblade's limited focus and specialized training, however, allows you to avoid arcane spell failure so long as you stick to light armor and light shields. This training does not extend to medium or heavy armors, nor to heavy shields. This ability does not apply to spells gained from a different spellcasting class.</p>\n<p>At 4th level, you learn to use medium armor with no chance of arcane spell failure.</p>\n<p>At 7th level, you learn to use a heavy shield with no chance of arcane spell failure.</p>\n<p><strong>Combat Casting:</strong> At 2nd level, you gain Combat Casting as a bonus feat.</p>\n<p><strong>Arcane Channeling (Su):</strong> Beginning at 3rd level, you can use a standard action to cast any touch spell you know and deliver the spell through your weapon with a melee attack. Casting a spell in this manner does not provoke attacks of opportunity. The spell must have a casting time of 1 standard action or less. If the melee attack is successful, the attack deals damage normally; then the effect of the spell is resolved.</p>\n<p>At 13th level, you can cast any touch spell you know as part of a full attack action, and the spell affects each target you hit in melee combat that round. Doing so discharges the spell at the end of the round, in the case of a touch spell that would otherwise last longer than 1 round.</p>\n<p><strong>Quick Cast:</strong> Beginning at 5th level, you can cast one spell each day as a swift action, so long as the casting time of the spell is 1 standard action or less.</p>\n<p>You can use this ability twice per day at 10th level, three times per day at 15th level, and four times per day at 20th level.</p>\n<p><strong>Spell Power (Ex):</strong> Starting at 6th level, you can more easily overcome the spell resistance of any opponent you successfully injure with a melee attack. If you have injured an opponent with a melee attack, you gain a +2 bonus on your caster level check to overcome spell resistance for the remainder of the encounter. This bonus increases to +3 at 11th level, to +4 at 16th level, and to +5 at 18th level.</p>\n<h3>Advancement</h3>\n<table>\n<tbody>\n<tr>\n<th colspan=\"6\">&nbsp;</th>\n<th colspan=\"10\">Spells per Day</th>\n</tr>\n<tr>\n<th>Level</th>\n<th><span class=\"caps\">BAB</span></th>\n<th>Fort</th>\n<th>Ref</th>\n<th>Will</th>\n<th>Special</th>\n<th>0th</th>\n<th>1st</th>\n<th>2nd</th>\n<th>3rd</th>\n<th>4th</th>\n<th>5th</th>\n</tr>\n<tr>\n<td>1st</td>\n<td>+1</td>\n<td>+2</td>\n<td>+0</td>\n<td>+2</td>\n<td><em>Arcane attunement</em>, armored mage (light)</td>\n<td>3</td>\n<td>2</td>\n<td>&mdash;</td>\n<td>&mdash;</td>\n<td>&mdash;</td>\n<td>&mdash;</td>\n</tr>\n<tr>\n<td>2nd</td>\n<td>+2</td>\n<td>+3</td>\n<td>+0</td>\n<td>+3</td>\n<td>Combat Casting</td>\n<td>4</td>\n<td>3</td>\n<td>&mdash;</td>\n<td>&mdash;</td>\n<td>&mdash;</td>\n<td>&mdash;</td>\n</tr>\n<tr>\n<td>3rd</td>\n<td>+3</td>\n<td>+3</td>\n<td>+1</td>\n<td>+3</td>\n<td>Arcane channeling</td>\n<td>5</td>\n<td>4</td>\n<td>&mdash;</td>\n<td>&mdash;</td>\n<td>&mdash;</td>\n<td>&mdash;</td>\n</tr>\n<tr>\n<td>4th</td>\n<td>+4</td>\n<td>+4</td>\n<td>+1</td>\n<td>+4</td>\n<td>Armored mage (medium)</td>\n<td>6</td>\n<td>5</td>\n<td>&mdash;</td>\n<td>&mdash;</td>\n<td>&mdash;</td>\n<td>&mdash;</td>\n</tr>\n<tr>\n<td>5th</td>\n<td>+5</td>\n<td>+4</td>\n<td>+1</td>\n<td>+4</td>\n<td>Quick cast 1/day</td>\n<td>6</td>\n<td>5</td>\n<td>2</td>\n<td>&mdash;</td>\n<td>&mdash;</td>\n<td>&mdash;</td>\n</tr>\n<tr>\n<td>6th</td>\n<td>+6/+1</td>\n<td>+5</td>\n<td>+2</td>\n<td>+5</td>\n<td>Spell power +2</td>\n<td>6</td>\n<td>6</td>\n<td>3</td>\n<td>&mdash;</td>\n<td>&mdash;</td>\n<td>&mdash;</td>\n</tr>\n<tr>\n<td>7th</td>\n<td>+7/+2</td>\n<td>+5</td>\n<td>+2</td>\n<td>+5</td>\n<td>Armored mage (heavy shield)</td>\n<td>6</td>\n<td>6</td>\n<td>5</td>\n<td>&mdash;</td>\n<td>&mdash;</td>\n<td>&mdash;</td>\n</tr>\n<tr>\n<td>8th</td>\n<td>+8/+3</td>\n<td>+6</td>\n<td>+2</td>\n<td>+6</td>\n<td>&nbsp;</td>\n<td>6</td>\n<td>7</td>\n<td>6</td>\n<td>&mdash;</td>\n<td>&mdash;</td>\n<td>&mdash;</td>\n</tr>\n<tr>\n<td>9th</td>\n<td>+9/+4</td>\n<td>+6</td>\n<td>+3</td>\n<td>+6</td>\n<td>&nbsp;</td>\n<td>6</td>\n<td>7</td>\n<td>6</td>\n<td>2</td>\n<td>&mdash;</td>\n<td>&mdash;</td>\n</tr>\n<tr>\n<td>10th</td>\n<td>+10/+5</td>\n<td>+7</td>\n<td>+3</td>\n<td>+7</td>\n<td>Quick cast 2/day</td>\n<td>6</td>\n<td>8</td>\n<td>7</td>\n<td>3</td>\n<td>&mdash;</td>\n<td>&mdash;</td>\n</tr>\n<tr>\n<td>11th</td>\n<td>+11/+6/+1</td>\n<td>+7</td>\n<td>+3</td>\n<td>+7</td>\n<td>Spell power +3</td>\n<td>6</td>\n<td>8</td>\n<td>7</td>\n<td>5</td>\n<td>&mdash;</td>\n<td>&mdash;</td>\n</tr>\n<tr>\n<td>12th</td>\n<td>+12/+7/+2</td>\n<td>+8</td>\n<td>+4</td>\n<td>+8</td>\n<td>&nbsp;</td>\n<td>6</td>\n<td>8</td>\n<td>8</td>\n<td>6</td>\n<td>&mdash;</td>\n<td>&mdash;</td>\n</tr>\n<tr>\n<td>13th</td>\n<td>+13/+8/+3</td>\n<td>+8</td>\n<td>+4</td>\n<td>+8</td>\n<td>Arcane channeling (full attack)</td>\n<td>6</td>\n<td>9</td>\n<td>8</td>\n<td>6</td>\n<td>2</td>\n<td>&mdash;</td>\n</tr>\n<tr>\n<td>14th</td>\n<td>+14/+9/+4</td>\n<td>+9</td>\n<td>+4</td>\n<td>+9</td>\n<td>&nbsp;</td>\n<td>6</td>\n<td>9</td>\n<td>8</td>\n<td>7</td>\n<td>3</td>\n<td>&mdash;</td>\n</tr>\n<tr>\n<td>15th</td>\n<td>+15/+10/+5</td>\n<td>+9</td>\n<td>+5</td>\n<td>+9</td>\n<td>Quick cast 3/day</td>\n<td>6</td>\n<td>9</td>\n<td>9</td>\n<td>7</td>\n<td>5</td>\n<td>&mdash;</td>\n</tr>\n<tr>\n<td>16th</td>\n<td>+16/+11/+6/+1</td>\n<td>+10</td>\n<td>+5</td>\n<td>+10</td>\n<td>Spell power +4</td>\n<td>6</td>\n<td>10</td>\n<td>9</td>\n<td>8</td>\n<td>6</td>\n<td>&mdash;</td>\n</tr>\n<tr>\n<td>17th</td>\n<td>+17/+12/+7/+2</td>\n<td>+10</td>\n<td>+5</td>\n<td>+10</td>\n<td>&nbsp;</td>\n<td>6</td>\n<td>10</td>\n<td>9</td>\n<td>8</td>\n<td>6</td>\n<td>2</td>\n</tr>\n<tr>\n<td>18th</td>\n<td>+18/+13/+8/+3</td>\n<td>+11</td>\n<td>+6</td>\n<td>+11</td>\n<td>Spell power +5</td>\n<td>6</td>\n<td>10</td>\n<td>10</td>\n<td>8</td>\n<td>7</td>\n<td>3</td>\n</tr>\n<tr>\n<td>19th</td>\n<td>+19/+14/+9/+4</td>\n<td>+11</td>\n<td>+6</td>\n<td>+11</td>\n<td>&nbsp;</td>\n<td>6</td>\n<td>10</td>\n<td>10</td>\n<td>9</td>\n<td>7</td>\n<td>5</td>\n</tr>\n<tr>\n<td>20th</td>\n<td>+20/+15/+10/+5</td>\n<td>+12</td>\n<td>+6</td>\n<td>+12</td>\n<td>Quick cast 4/day</td>\n<td>6</td>\n<td>10</td>\n<td>10</td>\n<td>10</td>\n<td>8</td>\n<td>6</td>\n</tr>\n</tbody>\n</table>",
      "chat": "",
      "unidentified": ""
    },
    "epic": "",
    "psionic": "",
    "nameFormula": "",
    "nameFromFormula": false,
    "tags": [],
    "uniqueId": "",
    "addedLevel": 0,
    "linkId": "",
    "linkSourceId": "",
    "linkImported": false,
    "linkSourceName": "",
    "source": "",
    "classSource": "",
    "userNonRemovable": false,
    "customAttributes": {},
    "customAttributesLocked": false,
    "customTag": "",
    "createdBy": "",
    "changes": [],
    "changeFlags": {
      "loseDexToAC": false,
      "noStr": false,
      "noDex": false,
      "noInt": false,
      "noCon": false,
      "oneInt": false,
      "oneWis": false,
      "oneCha": false,
      "noEncumbrance": false,
      "mediumArmorFullSpeed": false,
      "heavyArmorFullSpeed": false,
      "multiAttack": false,
      "multiweaponAttack": false,
      "uncannyDodge": false,
      "hasted": false,
      "firstChangeTargetSelectableOnDescription": false
    },
    "conditionFlags": {
      "dazzled": false,
      "wildshaped": false,
      "polymorphed": false
    },
    "combatChanges": [],
    "combatChangesRange": {
      "maxFormula": "",
      "max": 0
    },
    "combatChangesAdditionalRanges": {
      "hasAdditionalRanges": false,
      "slider1": {
        "maxFormula": "",
        "max": 0,
        "name": ""
      },
      "slider2": {
        "maxFormula": "",
        "max": 0,
        "name": ""
      },
      "slider3": {
        "maxFormula": "",
        "max": 0,
        "name": ""
      }
    },
    "combatChangesUsesCost": "chargesPerUse",
    "combatChangesApplySpecialActionsOnce": true,
    "combatChangeCustomDisplayName": "",
    "combatChangeCustomReferenceName": "",
    "sizeOverride": "",
    "counterName": "",
    "resistances": [],
    "damageReduction": [],
    "requirements": [],
    "creationChanges": [],
    "classType": "base",
    "levels": 0,
    "maxLevel": 20,
    "prestigeLevels": 0,
    "la": 0,
    "crPerHD": 4,
    "hdReplace": "",
    "hdReplaceRacialOnly": false,
    "addedAbilities": [
      {
        "uid": "swp",
        "level": 1
      },
      {
        "uid": "mwp",
        "level": 1
      },
      {
        "uid": "shp",
        "level": 1
      },
      {
        "uid": "ap-heavy",
        "level": 1
      },
      {
        "uid": "ap-medium",
        "level": 1
      },
      {
        "uid": "ap-light",
        "level": 1
      }
    ],
    "disabledAbilities": [],
    "turnUndeadLevelFormula": "0",
    "sneakAttackGroup": "none",
    "automaticFeatures": true,
    "sneakAttackFormula": "0",
    "minionGroup": "none",
    "minionLevelFormula": "0",
    "deckHandSizeFormula": "0",
    "knownCardsSizeFormula": "0",
    "deckPrestigeClass": false,
    "spellcastingType": "arcane",
    "spellcastingSpontaneus": true,
    "spellsPerLevel": [
      [
        1,
        3,
        2,
        -1,
        -1,
        -1,
        -1,
        -1,
        -1,
        -1,
        -1
      ],
      [
        2,
        4,
        3,
        -1,
        -1,
        -1,
        -1,
        -1,
        -1,
        -1,
        -1
      ],
      [
        3,
        5,
        4,
        -1,
        -1,
        -1,
        -1,
        -1,
        -1,
        -1,
        -1
      ],
      [
        4,
        6,
        5,
        -1,
        -1,
        -1,
        -1,
        -1,
        -1,
        -1,
        -1
      ],
      [
        5,
        6,
        5,
        2,
        -1,
        -1,
        -1,
        -1,
        -1,
        -1,
        -1
      ],
      [
        6,
        6,
        6,
        3,
        -1,
        -1,
        -1,
        -1,
        -1,
        -1,
        -1
      ],
      [
        7,
        6,
        6,
        5,
        -1,
        -1,
        -1,
        -1,
        -1,
        -1,
        -1
      ],
      [
        8,
        6,
        7,
        6,
        -1,
        -1,
        -1,
        -1,
        -1,
        -1,
        -1
      ],
      [
        9,
        6,
        7,
        6,
        2,
        -1,
        -1,
        -1,
        -1,
        -1,
        -1
      ],
      [
        10,
        6,
        8,
        7,
        3,
        -1,
        -1,
        -1,
        -1,
        -1,
        -1
      ],
      [
        11,
        6,
        8,
        8,
        5,
        -1,
        -1,
        -1,
        -1,
        -1,
        -1
      ],
      [
        12,
        6,
        9,
        8,
        6,
        -1,
        -1,
        -1,
        -1,
        -1,
        -1
      ],
      [
        13,
        6,
        9,
        9,
        6,
        2,
        -1,
        -1,
        -1,
        -1,
        -1
      ],
      [
        14,
        6,
        9,
        9,
        7,
        3,
        -1,
        -1,
        -1,
        -1,
        -1
      ],
      [
        15,
        6,
        10,
        9,
        7,
        5,
        -1,
        -1,
        -1,
        -1,
        -1
      ],
      [
        16,
        6,
        10,
        10,
        8,
        6,
        -1,
        -1,
        -1,
        -1,
        -1
      ],
      [
        17,
        6,
        10,
        10,
        8,
        6,
        2,
        -1,
        -1,
        -1,
        -1
      ],
      [
        18,
        6,
        10,
        10,
        8,
        7,
        3,
        -1,
        -1,
        -1,
        -1
      ],
      [
        19,
        6,
        10,
        10,
        9,
        7,
        5,
        -1,
        -1,
        -1,
        -1
      ],
      [
        20,
        6,
        10,
        10,
        10,
        8,
        6,
        -1,
        -1,
        -1,
        -1
      ]
    ],
    "spellsKnownPerLevel": [],
    "hasSpellbook": false,
    "hasLimitedSpellbook": false,
    "spellbook": [],
    "spellcastingDescription": null,
    "spellcastingSpellname": "Spell",
    "spellcastingSpellnamePl": "Spells",
    "hasSpecialSlot": false,
    "spellPointGroup": "wizard",
    "spellcastingAbility": "int",
    "spellslotAbility": "int",
    "spellPointBonusFormula": "0",
    "spellPointTable": {
      "1": 0,
      "2": 0,
      "3": 0,
      "4": 0,
      "5": 0,
      "6": 0,
      "7": 0,
      "8": 0,
      "9": 0,
      "10": 0,
      "11": 0,
      "12": 0,
      "13": 0,
      "14": 0,
      "15": 0,
      "16": 0,
      "17": 0,
      "18": 0,
      "19": 0,
      "20": 0
    },
    "powerPointBonusBaseAbility": "0",
    "powerPointTable": {
      "1": 0,
      "2": 0,
      "3": 0,
      "4": 0,
      "5": 0,
      "6": 0,
      "7": 0,
      "8": 0,
      "9": 0,
      "10": 0,
      "11": 0,
      "12": 0,
      "13": 0,
      "14": 0,
      "15": 0,
      "16": 0,
      "17": 0,
      "18": 0,
      "19": 0,
      "20": 0
    },
    "powersKnown": {
      "1": 0,
      "2": 0,
      "3": 0,
      "4": 0,
      "5": 0,
      "6": 0,
      "7": 0,
      "8": 0,
      "9": 0,
      "10": 0,
      "11": 0,
      "12": 0,
      "13": 0,
      "14": 0,
      "15": 0,
      "16": 0,
      "17": 0,
      "18": 0,
      "19": 0,
      "20": 0
    },
    "powersMaxLevel": {
      "1": 0,
      "2": 0,
      "3": 0,
      "4": 0,
      "5": 0,
      "6": 0,
      "7": 0,
      "8": 0,
      "9": 0,
      "10": 0,
      "11": 0,
      "12": 0,
      "13": 0,
      "14": 0,
      "15": 0,
      "16": 0,
      "17": 0,
      "18": 0,
      "19": 0,
      "20": 0
    },
    "hd": 8,
    "hp": 0,
    "bab": "high",
    "skillsPerLevel": 2,
    "allSpellsKnown": false,
    "halfCasterLevel": false,
    "creatureType": "humanoid",
    "savingThrows": {
      "fort": {
        "value": "high"
      },
      "ref": {
        "value": "low"
      },
      "will": {
        "value": "high"
      }
    },
    "fc": {
      "hp": {
        "value": 0
      },
      "skill": {
        "value": 0
      },
      "alt": {
        "value": 0
      }
    },
    "classSkills": {
      "apr": false,
      "blc": false,
      "blf": false,
      "clm": true,
      "coc": true,
      "crf": true,
      "dsc": true,
      "dip": false,
      "dev": false,
      "dis": false,
      "esc": false,
      "fog": false,
      "gif": false,
      "han": false,
      "hea": false,
      "hid": false,
      "int": false,
      "jmp": true,
      "kar": true,
      "kdu": true,
      "ken": true,
      "kge": true,
      "khi": true,
      "klo": true,
      "kna": true,
      "kno": true,
      "kpl": true,
      "kre": true,
      "kps": true,
      "lis": false,
      "mos": false,
      "opl": false,
      "prf": false,
      "pro": false,
      "rid": true,
      "src": false,
      "sen": true,
      "slt": false,
      "spk": false,
      "spl": true,
      "spt": false,
      "sur": false,
      "swm": true,
      "tmb": false,
      "umd": false,
      "uro": false,
      "aut": false,
      "psi": false,
      "upd": false
    },
    "nonActiveClassAbilities": [],
    "damage": {
      "parts": [],
      "alternativeParts": []
    },
    "attackParts": [],
    "conditionals": [],
    "contextNotes": [],
    "specialActions": [],
    "activateActions": [],
    "deactivateActions": [],
    "perRoundActions": [],
    "container": "None",
    "containerWeightless": false,
    "identifiedName": "Duskblade",
    "summon": [],
    "index": {
      "subType": null,
      "uniqueId": ""
    }
  },
  "ownership": {
    "default": 0,
    "4cMyZW2CYs4YQpDm": 3
  },
  "_stats": {
    "systemId": "D35E",
    "systemVersion": "2.3.2",
    "coreVersion": "11.309",
    "createdTime": null,
    "modifiedTime": 1698090941760,
    "lastModifiedBy": "SGnRBcdqyraLBzfX"
  },
  "_key": "!items!OV6Oxq2lHBBafOkh"
}
