{
  "name": "Elation",
  "type": "buff",
  "img": "modules/snogard-compendium/icons/spells/elation.webp",
  "system": {
    "originVersion": 0,
    "originPack": "",
    "originId": "",
    "possibleUpdate": false,
    "description": {
      "value": "",
      "chat": "",
      "unidentified": ""
    },
    "epic": "",
    "psionic": "",
    "nameFormula": "",
    "nameFromFormula": false,
    "tags": [],
    "uniqueId": "",
    "addedLevel": 0,
    "linkId": "",
    "linkSourceId": "",
    "linkImported": false,
    "linkSourceName": "",
    "source": "",
    "classSource": "",
    "userNonRemovable": false,
    "customAttributes": {},
    "customAttributesLocked": false,
    "customTag": "",
    "createdBy": "",
    "changes": [
      [
        "2",
        "ability",
        "str",
        "morale"
      ],
      [
        "2",
        "ability",
        "dex",
        "morale"
      ],
      [
        "5",
        "speed",
        "allSpeeds",
        "morale"
      ]
    ],
    "changeFlags": {
      "loseDexToAC": false,
      "noStr": false,
      "noDex": false,
      "noInt": false,
      "noCon": false,
      "oneInt": false,
      "oneWis": false,
      "oneCha": false,
      "noEncumbrance": false,
      "mediumArmorFullSpeed": false,
      "heavyArmorFullSpeed": false,
      "multiAttack": false,
      "multiweaponAttack": false,
      "uncannyDodge": false,
      "hasted": false,
      "firstChangeTargetSelectableOnDescription": false,
      "improvedMultiattack": false
    },
    "conditionFlags": {
      "dazzled": false,
      "wildshaped": false,
      "polymorphed": false
    },
    "combatChanges": [],
    "combatChangesRange": {
      "maxFormula": "",
      "max": 0
    },
    "combatChangesAdditionalRanges": {
      "hasAdditionalRanges": false,
      "slider1": {
        "maxFormula": "",
        "max": 0,
        "name": ""
      },
      "slider2": {
        "maxFormula": "",
        "max": 0,
        "name": ""
      },
      "slider3": {
        "maxFormula": "",
        "max": 0,
        "name": ""
      }
    },
    "combatChangesUsesCost": "chargesPerUse",
    "combatChangesApplySpecialActionsOnce": true,
    "combatChangeCustomDisplayName": "",
    "combatChangeCustomReferenceName": "",
    "sizeOverride": "",
    "counterName": "",
    "resistances": [],
    "damageReduction": [],
    "requirements": [],
    "creationChanges": [],
    "contextNotes": [],
    "activation": {
      "cost": 1,
      "type": ""
    },
    "duration": {
      "value": null,
      "units": ""
    },
    "target": {
      "value": ""
    },
    "range": {
      "value": null,
      "units": ""
    },
    "recharge": {
      "enabled": false,
      "formula": "",
      "current": 0
    },
    "uses": {
      "value": 0,
      "max": 0,
      "per": null,
      "autoDeductCharges": true,
      "allowMultipleUses": false,
      "chargesPerUse": 1,
      "maxPerUse": null,
      "maxPerUseFormula": "",
      "maxFormula": "",
      "rechargeFormula": null,
      "isResource": false,
      "canBeLinked": false
    },
    "requiresPsionicFocus": false,
    "linkedChargeItem": {
      "id": null,
      "img": null,
      "name": null
    },
    "light": {
      "color": "#000000",
      "radius": 0,
      "opacity": 0,
      "alpha": 0.5,
      "lightAngle": 360,
      "type": "",
      "animationSpeed": 6,
      "animationIntensity": 6,
      "dimRadius": null,
      "emitLight": false
    },
    "buffType": "temp",
    "active": false,
    "level": "",
    "timeline": {
      "elapsed": 0,
      "total": 1,
      "formula": "1*@item.level",
      "enabled": true,
      "deleteOnExpiry": false,
      "tickOnEnd": false
    },
    "damagePool": {
      "current": 0,
      "max": 0,
      "formula": "",
      "enabled": false,
      "deleteOnDamagePoolEmpty": false
    },
    "shapechange": {
      "source": {},
      "type": "polymorph"
    },
    "activateActions": [],
    "deactivateActions": [],
    "perRoundActions": [],
    "hideFromToken": false,
    "senses": {
      "lowLight": false,
      "lowLightMultiplier": null,
      "blindsight": null,
      "darkvision": null,
      "tremorsense": null,
      "truesight": null
    },
    "damage": {
      "parts": [],
      "alternativeParts": []
    },
    "attackParts": [],
    "conditionals": [],
    "specialActions": [],
    "summon": [],
    "container": "None",
    "containerWeightless": false,
    "identifiedName": "Elation",
    "index": {
      "subType": null,
      "uniqueId": ""
    }
  },
  "effects": [],
  "folder": null,
  "ownership": {
    "default": 0,
    "SGnRBcdqyraLBzfX": 3,
    "pukqaXS9wqBDIqB8": 3
  },
  "flags": {
    "core": {}
  },
  "_stats": {
    "systemId": "D35E",
    "systemVersion": "2.4.3",
    "coreVersion": "11.315",
    "createdTime": 1698604034775,
    "modifiedTime": 1721155749685,
    "lastModifiedBy": "pukqaXS9wqBDIqB8"
  },
  "_id": "uu9JQQO5xzm46wUJ",
  "sort": 2200000,
  "_key": "!items!uu9JQQO5xzm46wUJ"
}
