{
  "name": "Moon Blade (Sword)",
  "type": "attack",
  "_id": "SEhsqPKk3GPMnNIr",
  "img": "modules/snogard-compendium/icons/spells/moon-blade.webp",
  "system": {
    "originVersion": 0,
    "originPack": "",
    "originId": "",
    "possibleUpdate": false,
    "description": {
      "value": "<p>A 3-foot-long blazing beam of moonlight springs forth from your hand._</p>\n<p>You call a swordlike beam of moonlight into your hand. Anyone who can cast moon blade can wield the beam with proficiency. However, if you are proficient with any type of sword, you can wield the beam as if it were any type of sword and thus gain the benefits of any special sword skill you might have, such as Weapon Focus.</p>\n<p>Attacks with a moon blade are melee touch attacks. Its strike saps vitality or life force, causing no visible wounds but dealing 1d8 points of damage +1 point per two caster levels (to a maximum of +10) to any type of creature except undead. Undead are visibly wounded by a moon blade. Their substance boils away from its touch, and they take 2d8 points of damage +1 point per caster level (to a maximum of +20) per blow. The blade is immaterial, and your Strength modifier does not apply to the damage.</p>\n<p>A successful moon blade strike temporarily scrambles magic. On the target's next turn after a hit from a moon blade, the creature must make a Concentration check to use any spell or spell-like ability. The DC is equal to 10 + damage dealt + spell level. (An opponent hit by a moon blade while casting a spell must make the usual Concentration check to avoid losing the spell in addition to the check on its next turn.)</p>",
      "chat": "",
      "unidentified": ""
    },
    "epic": false,
    "psionic": "",
    "nameFormula": "",
    "nameFromFormula": false,
    "tags": [],
    "uniqueId": "",
    "addedLevel": 0,
    "linkId": "",
    "linkSourceId": "",
    "linkImported": false,
    "linkSourceName": "",
    "source": "",
    "classSource": "",
    "userNonRemovable": false,
    "customAttributes": {},
    "customAttributesLocked": false,
    "customTag": "",
    "createdBy": "",
    "activation": {
      "cost": 1,
      "type": ""
    },
    "duration": {
      "value": null,
      "units": ""
    },
    "target": {
      "value": ""
    },
    "range": {
      "value": null,
      "units": ""
    },
    "recharge": {
      "enabled": false,
      "formula": "",
      "current": 0
    },
    "uses": {
      "value": 0,
      "max": 0,
      "per": "",
      "autoDeductCharges": true,
      "allowMultipleUses": false,
      "chargesPerUse": 1,
      "maxPerUse": null,
      "maxPerUseFormula": "",
      "maxFormula": "",
      "rechargeFormula": null,
      "isResource": false,
      "canBeLinked": false
    },
    "requiresPsionicFocus": false,
    "linkedChargeItem": {
      "id": null,
      "img": null,
      "name": null
    },
    "measureTemplate": {
      "type": "",
      "size": "",
      "overrideColor": false,
      "customColor": "",
      "overrideTexture": false,
      "customTexture": ""
    },
    "actionType": "mwak",
    "attackBonus": "",
    "critConfirmBonus": "",
    "damage": {
      "parts": [
        [
          "1d8+5",
          null,
          "damage-untyped"
        ]
      ],
      "alternativeParts": []
    },
    "summon": [],
    "attackParts": [],
    "autoscaleAttackParts": "",
    "formula": "",
    "attackCountFormula": "",
    "maxDamageDice": 0,
    "maxDamageDiceFormula": "",
    "ability": {
      "attack": "str",
      "damage": "",
      "damageMult": 1,
      "critRange": "20",
      "critMult": 2,
      "twoHandedOnly": false,
      "vsTouchAc": true
    },
    "save": {
      "dc": "0",
      "description": "",
      "ability": "",
      "type": "",
      "dcAutoType": "",
      "dcAutoAbility": ""
    },
    "baseCl": "0",
    "sr": false,
    "pr": false,
    "metamagicFeats": {
      "maximized": false,
      "empowered": false,
      "enlarged": false,
      "intensified": false,
      "enhanced": false,
      "enhancedHalf": false,
      "widened": false
    },
    "effectNotes": "On the target's next turn after a hit from a moon blade, the creature must make a Concentration check to use any spell or spell-like ability. The DC is equal to 10 + damage dealt + spell level. (An opponent hit by a moon blade while casting a spell must make the usual Concentration check to avoid losing the spell in addition to the check on its next turn.)",
    "attackNotes": "Normal damage to all creatures, Increased damage to undead creatures.\n\n",
    "specialActions": [],
    "favorite": true,
    "rollTableDraw": {
      "formula": "",
      "name": "",
      "pack": "",
      "id": ""
    },
    "material": {
      "data": null
    },
    "associations": {
      "classes": []
    },
    "attackType": "weapon",
    "autoScaleOption": "default",
    "weaponSubtype": "1h",
    "masterwork": false,
    "threatRangeExtended": false,
    "finesseable": false,
    "enh": null,
    "incorporeal": false,
    "proficient": true,
    "primaryAttack": true,
    "showInQuickbar": true,
    "melded": false,
    "baseWeaponType": "",
    "nonLethal": false,
    "originalWeaponCreated": false,
    "originalWeaponId": null,
    "originalWeaponName": "",
    "originalWeaponImg": "",
    "originalWeaponProperties": {},
    "conditionals": [
      {
        "default": false,
        "name": "Damage to Undead",
        "modifiers": [
          {
            "formula": "1d8+5",
            "target": "damage",
            "subTarget": "allDamage",
            "type": "damage-untyped",
            "critical": ""
          }
        ]
      }
    ],
    "thrown": false,
    "returning": false,
    "magic": false,
    "alignment": {
      "good": false,
      "evil": false,
      "lawful": false,
      "chaotic": false
    },
    "selectedMaterial": "none",
    "nonLethalNoPenalty": false,
    "isNaturalEquivalent": false,
    "contextNotes": [],
    "activateActions": [],
    "deactivateActions": [],
    "perRoundActions": [],
    "container": "None",
    "containerWeightless": false,
    "changes": [],
    "combatChanges": [],
    "requirements": [],
    "creationChanges": [],
    "resistances": [],
    "damageReduction": [],
    "identifiedName": "Moon Blade (Sword)",
    "index": {
      "subType": null,
      "uniqueId": ""
    }
  },
  "effects": [],
  "folder": null,
  "sort": 3700000,
  "ownership": {
    "default": 0,
    "SGnRBcdqyraLBzfX": 3
  },
  "flags": {},
  "_stats": {
    "systemId": "D35E",
    "systemVersion": "2.4.3",
    "coreVersion": "11.315",
    "createdTime": 1689595753250,
    "modifiedTime": 1721155749685,
    "lastModifiedBy": "pukqaXS9wqBDIqB8"
  },
  "_key": "!items!SEhsqPKk3GPMnNIr"
}
