{
  "name": "Armor Augment Crystal of Lifekeeping, Greater",
  "type": "equipment",
  "img": "modules/snogard-compendium/icons/items/armor-augment-crystal-of-lifekeeping-greater.webp",
  "system": {
    "originVersion": 0,
    "originPack": "",
    "originId": "",
    "possibleUpdate": false,
    "description": {
      "value": "<p><strong>Item Level</strong>: 2nd (least), 4th (lesser), 9th (greater)<br><strong>Body Slot</strong>: &mdash; (armor crystal)<br><strong>Activation</strong>: &mdash;; see text<br><strong>Weight</strong>: &mdash;</p>\n<p>This bright crystal gleams and sparkles in the light.<br>A crystal of lifekeeping wards you against necromantic and death effects.</p>\n<ul>\n<li><strong>Least</strong>: This augment crystal grants you a +1 competence bonus on saving throws against energy drain attacks, inflict spells, death spells, and death effects.</li>\n<li><strong>Lesser</strong>: As the least crystal, except the bonus is +3.</li>\n<li><strong>Greater</strong>: As the least crystal, except the bonus is +5. In addition, if you fail a save against any of these effects, you can choose to reroll the save as an immediate (mental) action. This ability functions once per day.</li>\n</ul>\n<p><em>Prerequisites</em>: Craft Magic Arms and Armor, death ward<br><em>Cost to Create</em>: 100 gp, 8 XP, 1 day (least); 500 gp, 40 XP, 1 day (lesser); 2500, 200xp, 5 days (greater)</p>",
      "chat": "",
      "unidentified": ""
    },
    "epic": "",
    "psionic": "",
    "nameFormula": "",
    "nameFromFormula": false,
    "tags": [],
    "uniqueId": "",
    "addedLevel": 0,
    "linkId": "",
    "linkSourceId": "",
    "linkImported": false,
    "linkSourceName": "",
    "source": "",
    "classSource": "",
    "userNonRemovable": false,
    "customAttributes": {},
    "customAttributesLocked": false,
    "customTag": "",
    "createdBy": "",
    "quantity": 1,
    "weight": 0,
    "constantWeight": false,
    "price": 5000,
    "resalePrice": null,
    "brokenResalePrice": null,
    "fullResalePrice": false,
    "identified": true,
    "identifiedCurse": false,
    "cursed": false,
    "curseActive": false,
    "hp": {
      "max": 10,
      "value": 10
    },
    "hardness": 0,
    "carried": true,
    "unidentified": {
      "price": 0,
      "name": ""
    },
    "identifiedName": "Armor Augment Crystal of Lifekeeping, Greater",
    "container": "None",
    "containerId": "none",
    "containerWeightless": false,
    "equippedWeightless": false,
    "changes": [],
    "changeFlags": {
      "loseDexToAC": false,
      "noStr": false,
      "noDex": false,
      "noInt": false,
      "noCon": false,
      "oneInt": false,
      "oneWis": false,
      "oneCha": false,
      "noEncumbrance": false,
      "mediumArmorFullSpeed": false,
      "heavyArmorFullSpeed": false,
      "multiAttack": false,
      "multiweaponAttack": false,
      "uncannyDodge": false,
      "improvedMultiattack": false,
      "hasted": false,
      "firstChangeTargetSelectableOnDescription": false
    },
    "conditionFlags": {
      "dazzled": false,
      "wildshaped": false,
      "polymorphed": false
    },
    "combatChanges": [],
    "combatChangesRange": {
      "maxFormula": "",
      "max": 0
    },
    "combatChangesAdditionalRanges": {
      "hasAdditionalRanges": false,
      "slider1": {
        "maxFormula": "",
        "max": 0,
        "name": ""
      },
      "slider2": {
        "maxFormula": "",
        "max": 0,
        "name": ""
      },
      "slider3": {
        "maxFormula": "",
        "max": 0,
        "name": ""
      }
    },
    "combatChangesUsesCost": "chargesPerUse",
    "combatChangesApplySpecialActionsOnce": true,
    "combatChangeCustomDisplayName": "",
    "combatChangeCustomReferenceName": "",
    "sizeOverride": "",
    "counterName": "",
    "resistances": [],
    "damageReduction": [],
    "requirements": [],
    "creationChanges": [],
    "measureTemplate": {
      "type": "",
      "size": "",
      "overrideColor": false,
      "customColor": "",
      "overrideTexture": false,
      "customTexture": ""
    },
    "actionType": "",
    "attackBonus": "",
    "critConfirmBonus": "",
    "damage": {
      "parts": [],
      "alternativeParts": []
    },
    "summon": [],
    "attackParts": [],
    "autoscaleAttackParts": "",
    "formula": "",
    "attackCountFormula": "",
    "maxDamageDice": 0,
    "maxDamageDiceFormula": "",
    "ability": {
      "attack": null,
      "damage": null,
      "damageMult": 1,
      "critRange": "20",
      "critMult": 2,
      "twoHandedOnly": false,
      "vsTouchAc": false
    },
    "save": {
      "dc": 0,
      "description": "",
      "ability": "",
      "type": "",
      "dcAutoType": "",
      "dcAutoAbility": ""
    },
    "baseCl": "0",
    "sr": false,
    "pr": false,
    "metamagicFeats": {
      "maximized": false,
      "empowered": false,
      "enlarged": false,
      "intensified": false,
      "enhanced": false,
      "enhancedHalf": false,
      "widened": false
    },
    "effectNotes": "",
    "attackNotes": "",
    "specialActions": [],
    "favorite": false,
    "rollTableDraw": {
      "formula": "",
      "name": "",
      "pack": "",
      "id": ""
    },
    "contextNotes": [
      [
        "+3 competence bonus against energy drain attacks, inflict spells, death spells, and death effects.",
        "savingThrows",
        "allSavingThrows"
      ]
    ],
    "enhancements": {
      "uses": {
        "value": 0,
        "max": 0,
        "per": null,
        "rechargeFormula": null,
        "autoDeductCharges": true,
        "allowMultipleUses": false,
        "commonPool": false
      },
      "automation": {
        "updateName": false,
        "updatePrice": false
      },
      "clFormula": "",
      "spellcastingAbility": "",
      "items": []
    },
    "light": {
      "color": "#000000",
      "radius": 0,
      "opacity": 0,
      "alpha": 0.5,
      "lightAngle": 360,
      "type": "",
      "animationSpeed": 6,
      "animationIntensity": 6,
      "dimRadius": null,
      "emitLight": false
    },
    "equipped": true,
    "equipmentType": "misc",
    "equipmentSubtype": "other",
    "armor": {
      "value": 0,
      "dex": "",
      "acp": 0,
      "enh": 0
    },
    "masterwork": false,
    "melded": false,
    "linkedItems": [],
    "armorType": {
      "value": "",
      "_deprecated": true
    },
    "spellFailure": 0,
    "slot": "slotless",
    "convertedWeight": null,
    "selectedMaterial": "none",
    "activation": {
      "cost": null,
      "type": ""
    },
    "senses": {
      "lowLight": false,
      "lowLightMultiplier": null,
      "blindsight": null,
      "darkvision": null,
      "tremorsense": null,
      "truesight": null
    },
    "conditionals": [],
    "activateActions": [],
    "deactivateActions": [],
    "perRoundActions": [],
    "index": {
      "uniqueId": ""
    }
  },
  "effects": [],
  "folder": null,
  "ownership": {
    "default": 0,
    "pukqaXS9wqBDIqB8": 3
  },
  "flags": {
    "core": {}
  },
  "_stats": {
    "systemId": "D35E",
    "systemVersion": "2.4.3",
    "coreVersion": "11.315",
    "createdTime": 1709346843486,
    "modifiedTime": 1721147742994,
    "lastModifiedBy": "pukqaXS9wqBDIqB8"
  },
  "_id": "OgHX8sWlYarjmwBi",
  "sort": 200000,
  "_key": "!items!OgHX8sWlYarjmwBi"
}
